\relax 
\providecommand\hyper@newdestlabel[2]{}
\catcode `"\active 
\catcode `<\active 
\catcode `>\active 
\@nameuse{es@quoting}
\providecommand\HyperFirstAtBeginDocument{\AtBeginDocument}
\HyperFirstAtBeginDocument{\ifx\hyper@anchor\@undefined
\global\let\oldcontentsline\contentsline
\gdef\contentsline#1#2#3#4{\oldcontentsline{#1}{#2}{#3}}
\global\let\oldnewlabel\newlabel
\gdef\newlabel#1#2{\newlabelxx{#1}#2}
\gdef\newlabelxx#1#2#3#4#5#6{\oldnewlabel{#1}{{#2}{#3}}}
\AtEndDocument{\ifx\hyper@anchor\@undefined
\let\contentsline\oldcontentsline
\let\newlabel\oldnewlabel
\fi}
\fi}
\global\let\hyper@last\relax 
\gdef\HyperFirstAtBeginDocument#1{#1}
\providecommand\HyField@AuxAddToFields[1]{}
\providecommand\HyField@AuxAddToCoFields[2]{}
\abx@aux@refcontext{anyt/global//global/global}
\providecommand \oddpage@label [2]{}
\@writefile{toc}{\boolfalse {citerequest}\boolfalse {citetracker}\boolfalse {pagetracker}\boolfalse {backtracker}\relax }
\@writefile{lof}{\boolfalse {citerequest}\boolfalse {citetracker}\boolfalse {pagetracker}\boolfalse {backtracker}\relax }
\@writefile{lot}{\boolfalse {citerequest}\boolfalse {citetracker}\boolfalse {pagetracker}\boolfalse {backtracker}\relax }
\babel@aux{english}{}
\babel@aux{spanish}{}
\babel@aux{spanish}{}
\babel@aux{english}{}
\babel@aux{spanish}{}
\@input{./caps/Agradecimientos.aux}
\@input{./caps/Introduccion.aux}
\abx@aux@cite{seo}
\abx@aux@segm{0}{0}{seo}
\abx@aux@cite{18000especies}
\abx@aux@segm{0}{0}{18000especies}
\abx@aux@cite{diary}
\abx@aux@segm{0}{0}{diary}
\abx@aux@segm{0}{0}{diary}
\abx@aux@cite{zepa}
\abx@aux@segm{0}{0}{zepa}
\abx@aux@cite{fernandez}
\abx@aux@segm{0}{0}{fernandez}
\abx@aux@cite{macias}
\abx@aux@segm{0}{0}{macias}
\abx@aux@cite{iberaves}
\abx@aux@segm{0}{0}{iberaves}
\abx@aux@cite{consumer}
\abx@aux@segm{0}{0}{consumer}
\abx@aux@cite{gsma}
\abx@aux@segm{0}{0}{gsma}
\abx@aux@cite{gartner}
\abx@aux@segm{0}{0}{gartner}
\abx@aux@cite{appbrain}
\abx@aux@segm{0}{0}{appbrain}
\abx@aux@cite{castro}
\abx@aux@segm{0}{0}{castro}
\@input{./caps/Objetivo.aux}
\@input{./caps/Antecedentes.aux}
\abx@aux@cite{edmund}
\abx@aux@segm{0}{0}{edmund}
\abx@aux@cite{florence}
\abx@aux@segm{0}{0}{florence}
\abx@aux@cite{josep}
\abx@aux@segm{0}{0}{josep}
\abx@aux@cite{mantaking}
\abx@aux@segm{0}{0}{mantaking}
\abx@aux@segm{0}{0}{mantaking}
\abx@aux@cite{texas}
\abx@aux@segm{0}{0}{texas}
\abx@aux@cite{pete}
\abx@aux@segm{0}{0}{pete}
\abx@aux@cite{birders}
\abx@aux@segm{0}{0}{birders}
\abx@aux@segm{0}{0}{birders}
\abx@aux@cite{cornerCams}
\abx@aux@segm{0}{0}{cornerCams}
\abx@aux@segm{0}{0}{cornerCams}
\abx@aux@cite{birdforum}
\abx@aux@segm{0}{0}{birdforum}
\abx@aux@cite{birdwat}
\abx@aux@segm{0}{0}{birdwat}
\abx@aux@cite{birdchat}
\abx@aux@segm{0}{0}{birdchat}
\abx@aux@cite{ditr}
\abx@aux@segm{0}{0}{ditr}
\abx@aux@cite{cuota}
\abx@aux@segm{0}{0}{cuota}
\abx@aux@cite{versiones}
\abx@aux@segm{0}{0}{versiones}
\abx@aux@cite{treble}
\abx@aux@segm{0}{0}{treble}
\abx@aux@cite{mvc}
\abx@aux@segm{0}{0}{mvc}
\abx@aux@cite{gpshistoria}
\abx@aux@segm{0}{0}{gpshistoria}
\abx@aux@cite{gpsfunc}
\abx@aux@segm{0}{0}{gpsfunc}
\abx@aux@cite{googlemaps}
\abx@aux@segm{0}{0}{googlemaps}
\abx@aux@cite{disert}
\abx@aux@segm{0}{0}{disert}
\abx@aux@cite{apache}
\abx@aux@segm{0}{0}{apache}
\abx@aux@cite{mariabd}
\abx@aux@segm{0}{0}{mariabd}
\abx@aux@cite{php}
\abx@aux@segm{0}{0}{php}
\abx@aux@cite{sqlite}
\abx@aux@segm{0}{0}{sqlite}
\abx@aux@cite{ebird}
\abx@aux@segm{0}{0}{ebird}
\abx@aux@cite{birdtrack}
\abx@aux@segm{0}{0}{birdtrack}
\abx@aux@cite{inaturalist}
\abx@aux@segm{0}{0}{inaturalist}
\abx@aux@cite{ibird}
\abx@aux@segm{0}{0}{ibird}
\abx@aux@cite{cybertracker}
\abx@aux@segm{0}{0}{cybertracker}
\abx@aux@cite{identificador}
\abx@aux@segm{0}{0}{identificador}
\abx@aux@cite{acuaticas}
\abx@aux@segm{0}{0}{acuaticas}
\abx@aux@cite{merlin}
\abx@aux@segm{0}{0}{merlin}
\abx@aux@cite{ornithopedia}
\abx@aux@segm{0}{0}{ornithopedia}
\abx@aux@cite{birdcounter}
\abx@aux@segm{0}{0}{birdcounter}
\@input{./caps/Metodologia.aux}
\abx@aux@cite{raul}
\abx@aux@segm{0}{0}{raul}
\abx@aux@cite{take}
\abx@aux@segm{0}{0}{take}
\abx@aux@cite{agilem}
\abx@aux@segm{0}{0}{agilem}
\abx@aux@cite{kent}
\abx@aux@segm{0}{0}{kent}
\abx@aux@cite{extreme}
\abx@aux@segm{0}{0}{extreme}
\abx@aux@cite{iac}
\abx@aux@segm{0}{0}{iac}
\abx@aux@segm{0}{0}{iac}
\abx@aux@segm{0}{0}{iac}
\abx@aux@segm{0}{0}{iac}
\abx@aux@segm{0}{0}{iac}
\@input{./caps/Resultados.aux}
\abx@aux@cite{riesgos}
\abx@aux@segm{0}{0}{riesgos}
\abx@aux@cite{aves}
\abx@aux@segm{0}{0}{aves}
\abx@aux@cite{municipios}
\abx@aux@segm{0}{0}{municipios}
\abx@aux@cite{vizzor}
\abx@aux@segm{0}{0}{vizzor}
\abx@aux@cite{jakob}
\abx@aux@segm{0}{0}{jakob}
\abx@aux@cite{shneiderman}
\abx@aux@segm{0}{0}{shneiderman}
\abx@aux@cite{salido15}
\abx@aux@segm{0}{0}{salido15}
\@input{./caps/Conclusiones.aux}
\@input{./caps/AnexoA.aux}
\abx@aux@cite{disk}
\abx@aux@segm{0}{0}{disk}
\@input{./caps/AnexoB.aux}
\@input{./caps/AnexoC.aux}
\abx@aux@cite{picos}
\abx@aux@segm{0}{0}{picos}
\abx@aux@segm{0}{0}{picos}
\abx@aux@cite{ordesa}
\abx@aux@segm{0}{0}{ordesa}
\abx@aux@segm{0}{0}{ordesa}
\abx@aux@cite{teide}
\abx@aux@segm{0}{0}{teide}
\abx@aux@segm{0}{0}{teide}
\abx@aux@cite{caldera}
\abx@aux@segm{0}{0}{caldera}
\abx@aux@segm{0}{0}{caldera}
\abx@aux@cite{aiguestortes}
\abx@aux@segm{0}{0}{aiguestortes}
\abx@aux@segm{0}{0}{aiguestortes}
\abx@aux@cite{donana}
\abx@aux@segm{0}{0}{donana}
\abx@aux@segm{0}{0}{donana}
\abx@aux@cite{tablas}
\abx@aux@segm{0}{0}{tablas}
\abx@aux@segm{0}{0}{tablas}
\abx@aux@cite{timanfaya}
\abx@aux@segm{0}{0}{timanfaya}
\abx@aux@segm{0}{0}{timanfaya}
\abx@aux@cite{garajonay}
\abx@aux@segm{0}{0}{garajonay}
\abx@aux@segm{0}{0}{garajonay}
\abx@aux@cite{cabrera}
\abx@aux@segm{0}{0}{cabrera}
\abx@aux@segm{0}{0}{cabrera}
\abx@aux@cite{cabaneros}
\abx@aux@segm{0}{0}{cabaneros}
\abx@aux@segm{0}{0}{cabaneros}
\abx@aux@cite{sierra}
\abx@aux@segm{0}{0}{sierra}
\abx@aux@segm{0}{0}{sierra}
\abx@aux@cite{galicia}
\abx@aux@segm{0}{0}{galicia}
\abx@aux@segm{0}{0}{galicia}
\abx@aux@cite{monfrague}
\abx@aux@segm{0}{0}{monfrague}
\abx@aux@segm{0}{0}{monfrague}
\abx@aux@cite{guadarrama}
\abx@aux@segm{0}{0}{guadarrama}
\abx@aux@segm{0}{0}{guadarrama}
\abx@aux@cite{decreto}
\abx@aux@segm{0}{0}{decreto}
\abx@aux@cite{ley}
\abx@aux@segm{0}{0}{ley}
\abx@aux@segm{0}{0}{decreto}
\abx@aux@cite{reglamento}
\abx@aux@segm{0}{0}{reglamento}
\@input{./caps/AnexoD.aux}
\@input{./caps/AnexoE.aux}
\@input{./caps/AnexoF.aux}
\@input{./caps/AnexoG.aux}
\@input{./caps/Contenido.aux}
\@writefile{toc}{\defcounter {refsection}{0}\relax }\@writefile{toc}{\contentsline {chapter}{Bibliograf\IeC {\'\i }a}{209}{appendix.I}}
\@writefile{toc}{\defcounter {refsection}{0}\relax }\@writefile{toc}{\contentsline {chapter}{\'{I}ndice alfab\'{e}tico}{213}{appendix.J}}
\abx@aux@number{102}{apache}{0}{anyt/global//global/global}{1}
\abx@aux@number{103}{appbrain}{0}{anyt/global//global/global}{2}
\abx@aux@number{104}{agilem}{0}{anyt/global//global/global}{3}
\abx@aux@number{105}{birdchat}{0}{anyt/global//global/global}{4}
\abx@aux@number{106}{birdforum}{0}{anyt/global//global/global}{5}
\abx@aux@number{107}{birdtrack}{0}{anyt/global//global/global}{6}
\abx@aux@number{108}{birdwat}{0}{anyt/global//global/global}{7}
\abx@aux@number{109}{ley}{0}{anyt/global//global/global}{8}
\abx@aux@number{110}{decreto}{0}{anyt/global//global/global}{9}
\abx@aux@number{111}{reglamento}{0}{anyt/global//global/global}{10}
\abx@aux@number{112}{galicia}{0}{anyt/global//global/global}{11}
\abx@aux@number{113}{cabrera}{0}{anyt/global//global/global}{12}
\abx@aux@number{114}{birdcounter}{0}{anyt/global//global/global}{13}
\abx@aux@number{115}{cybertracker}{0}{anyt/global//global/global}{14}
\abx@aux@number{116}{picos}{0}{anyt/global//global/global}{15}
\abx@aux@number{117}{garajonay}{0}{anyt/global//global/global}{16}
\abx@aux@number{118}{ditr}{0}{anyt/global//global/global}{17}
\abx@aux@number{119}{ornithopedia}{0}{anyt/global//global/global}{18}
\abx@aux@number{120}{vizzor}{0}{anyt/global//global/global}{19}
\abx@aux@number{121}{disert}{0}{anyt/global//global/global}{20}
\abx@aux@number{122}{donana}{0}{anyt/global//global/global}{21}
\abx@aux@number{123}{teide}{0}{anyt/global//global/global}{22}
\abx@aux@number{124}{aiguestortes}{0}{anyt/global//global/global}{23}
\abx@aux@number{125}{gartner}{0}{anyt/global//global/global}{24}
\abx@aux@number{126}{18000especies}{0}{anyt/global//global/global}{25}
\abx@aux@number{127}{treble}{0}{anyt/global//global/global}{26}
\abx@aux@number{128}{consumer}{0}{anyt/global//global/global}{27}
\abx@aux@number{129}{googlemaps}{0}{anyt/global//global/global}{28}
\abx@aux@number{130}{mvc}{0}{anyt/global//global/global}{29}
\abx@aux@number{131}{versiones}{0}{anyt/global//global/global}{30}
\abx@aux@number{132}{disk}{0}{anyt/global//global/global}{31}
\abx@aux@number{133}{gsma}{0}{anyt/global//global/global}{32}
\abx@aux@number{134}{gpsfunc}{0}{anyt/global//global/global}{33}
\abx@aux@number{135}{inaturalist}{0}{anyt/global//global/global}{34}
\abx@aux@number{136}{municipios}{0}{anyt/global//global/global}{35}
\abx@aux@number{137}{cabaneros}{0}{anyt/global//global/global}{36}
\abx@aux@number{138}{tablas}{0}{anyt/global//global/global}{37}
\abx@aux@number{139}{ordesa}{0}{anyt/global//global/global}{38}
\abx@aux@number{140}{merlin}{0}{anyt/global//global/global}{39}
\abx@aux@number{141}{ebird}{0}{anyt/global//global/global}{40}
\abx@aux@number{142}{mariabd}{0}{anyt/global//global/global}{41}
\abx@aux@number{143}{monfrague}{0}{anyt/global//global/global}{42}
\abx@aux@number{144}{timanfaya}{0}{anyt/global//global/global}{43}
\abx@aux@number{145}{guadarrama}{0}{anyt/global//global/global}{44}
\abx@aux@number{146}{zepa}{0}{anyt/global//global/global}{45}
\abx@aux@number{147}{birders}{0}{anyt/global//global/global}{46}
\abx@aux@number{148}{jakob}{0}{anyt/global//global/global}{47}
\abx@aux@number{149}{cornerCams}{0}{anyt/global//global/global}{48}
\abx@aux@number{150}{texas}{0}{anyt/global//global/global}{49}
\abx@aux@number{151}{php}{0}{anyt/global//global/global}{50}
\abx@aux@number{152}{sierra}{0}{anyt/global//global/global}{51}
\abx@aux@number{153}{ibird}{0}{anyt/global//global/global}{52}
\abx@aux@number{154}{extreme}{0}{anyt/global//global/global}{53}
\abx@aux@number{155}{salido15}{0}{anyt/global//global/global}{54}
\abx@aux@number{156}{acuaticas}{0}{anyt/global//global/global}{55}
\abx@aux@number{157}{identificador}{0}{anyt/global//global/global}{56}
\abx@aux@number{158}{iberaves}{0}{anyt/global//global/global}{57}
\abx@aux@number{159}{aves}{0}{anyt/global//global/global}{58}
\abx@aux@number{160}{seo}{0}{anyt/global//global/global}{59}
\abx@aux@number{161}{sqlite}{0}{anyt/global//global/global}{60}
\abx@aux@number{162}{mantaking}{0}{anyt/global//global/global}{61}
\abx@aux@number{163}{diary}{0}{anyt/global//global/global}{62}
\abx@aux@number{164}{gpshistoria}{0}{anyt/global//global/global}{63}
\abx@aux@number{165}{caldera}{0}{anyt/global//global/global}{64}
\abx@aux@number{166}{cuota}{0}{anyt/global//global/global}{65}
\abx@aux@number{167}{florence}{0}{anyt/global//global/global}{66}
\abx@aux@number{168}{kent}{0}{anyt/global//global/global}{67}
\abx@aux@number{169}{iac}{0}{anyt/global//global/global}{68}
\abx@aux@number{170}{shneiderman}{0}{anyt/global//global/global}{69}
\abx@aux@number{171}{castro}{0}{anyt/global//global/global}{70}
\abx@aux@number{172}{pete}{0}{anyt/global//global/global}{71}
\abx@aux@number{173}{fernandez}{0}{anyt/global//global/global}{72}
\abx@aux@number{174}{raul}{0}{anyt/global//global/global}{73}
\abx@aux@number{175}{josep}{0}{anyt/global//global/global}{74}
\abx@aux@number{176}{macias}{0}{anyt/global//global/global}{75}
\abx@aux@number{177}{riesgos}{0}{anyt/global//global/global}{76}
\abx@aux@number{178}{edmund}{0}{anyt/global//global/global}{77}
\abx@aux@number{179}{take}{0}{anyt/global//global/global}{78}
\abx@aux@refcontextdefaultsdone
\abx@aux@defaultrefcontext{0}{apache}{anyt/global//global/global}
\abx@aux@defaultrefcontext{0}{appbrain}{anyt/global//global/global}
\abx@aux@defaultrefcontext{0}{agilem}{anyt/global//global/global}
\abx@aux@defaultrefcontext{0}{birdchat}{anyt/global//global/global}
\abx@aux@defaultrefcontext{0}{birdforum}{anyt/global//global/global}
\abx@aux@defaultrefcontext{0}{birdtrack}{anyt/global//global/global}
\abx@aux@defaultrefcontext{0}{birdwat}{anyt/global//global/global}
\abx@aux@defaultrefcontext{0}{ley}{anyt/global//global/global}
\abx@aux@defaultrefcontext{0}{decreto}{anyt/global//global/global}
\abx@aux@defaultrefcontext{0}{reglamento}{anyt/global//global/global}
\abx@aux@defaultrefcontext{0}{galicia}{anyt/global//global/global}
\abx@aux@defaultrefcontext{0}{cabrera}{anyt/global//global/global}
\abx@aux@defaultrefcontext{0}{birdcounter}{anyt/global//global/global}
\abx@aux@defaultrefcontext{0}{cybertracker}{anyt/global//global/global}
\abx@aux@defaultrefcontext{0}{picos}{anyt/global//global/global}
\abx@aux@defaultrefcontext{0}{garajonay}{anyt/global//global/global}
\abx@aux@defaultrefcontext{0}{ditr}{anyt/global//global/global}
\abx@aux@defaultrefcontext{0}{ornithopedia}{anyt/global//global/global}
\abx@aux@defaultrefcontext{0}{vizzor}{anyt/global//global/global}
\abx@aux@defaultrefcontext{0}{disert}{anyt/global//global/global}
\abx@aux@defaultrefcontext{0}{donana}{anyt/global//global/global}
\abx@aux@defaultrefcontext{0}{teide}{anyt/global//global/global}
\abx@aux@defaultrefcontext{0}{aiguestortes}{anyt/global//global/global}
\abx@aux@defaultrefcontext{0}{gartner}{anyt/global//global/global}
\abx@aux@defaultrefcontext{0}{18000especies}{anyt/global//global/global}
\abx@aux@defaultrefcontext{0}{treble}{anyt/global//global/global}
\abx@aux@defaultrefcontext{0}{consumer}{anyt/global//global/global}
\abx@aux@defaultrefcontext{0}{googlemaps}{anyt/global//global/global}
\abx@aux@defaultrefcontext{0}{mvc}{anyt/global//global/global}
\abx@aux@defaultrefcontext{0}{versiones}{anyt/global//global/global}
\abx@aux@defaultrefcontext{0}{disk}{anyt/global//global/global}
\abx@aux@defaultrefcontext{0}{gsma}{anyt/global//global/global}
\abx@aux@defaultrefcontext{0}{gpsfunc}{anyt/global//global/global}
\abx@aux@defaultrefcontext{0}{inaturalist}{anyt/global//global/global}
\abx@aux@defaultrefcontext{0}{municipios}{anyt/global//global/global}
\abx@aux@defaultrefcontext{0}{cabaneros}{anyt/global//global/global}
\abx@aux@defaultrefcontext{0}{tablas}{anyt/global//global/global}
\abx@aux@defaultrefcontext{0}{ordesa}{anyt/global//global/global}
\abx@aux@defaultrefcontext{0}{merlin}{anyt/global//global/global}
\abx@aux@defaultrefcontext{0}{ebird}{anyt/global//global/global}
\abx@aux@defaultrefcontext{0}{mariabd}{anyt/global//global/global}
\abx@aux@defaultrefcontext{0}{monfrague}{anyt/global//global/global}
\abx@aux@defaultrefcontext{0}{timanfaya}{anyt/global//global/global}
\abx@aux@defaultrefcontext{0}{guadarrama}{anyt/global//global/global}
\abx@aux@defaultrefcontext{0}{zepa}{anyt/global//global/global}
\abx@aux@defaultrefcontext{0}{birders}{anyt/global//global/global}
\abx@aux@defaultrefcontext{0}{jakob}{anyt/global//global/global}
\abx@aux@defaultrefcontext{0}{cornerCams}{anyt/global//global/global}
\abx@aux@defaultrefcontext{0}{texas}{anyt/global//global/global}
\abx@aux@defaultrefcontext{0}{php}{anyt/global//global/global}
\abx@aux@defaultrefcontext{0}{sierra}{anyt/global//global/global}
\abx@aux@defaultrefcontext{0}{ibird}{anyt/global//global/global}
\abx@aux@defaultrefcontext{0}{extreme}{anyt/global//global/global}
\abx@aux@defaultrefcontext{0}{salido15}{anyt/global//global/global}
\abx@aux@defaultrefcontext{0}{acuaticas}{anyt/global//global/global}
\abx@aux@defaultrefcontext{0}{identificador}{anyt/global//global/global}
\abx@aux@defaultrefcontext{0}{iberaves}{anyt/global//global/global}
\abx@aux@defaultrefcontext{0}{aves}{anyt/global//global/global}
\abx@aux@defaultrefcontext{0}{seo}{anyt/global//global/global}
\abx@aux@defaultrefcontext{0}{sqlite}{anyt/global//global/global}
\abx@aux@defaultrefcontext{0}{mantaking}{anyt/global//global/global}
\abx@aux@defaultrefcontext{0}{diary}{anyt/global//global/global}
\abx@aux@defaultrefcontext{0}{gpshistoria}{anyt/global//global/global}
\abx@aux@defaultrefcontext{0}{caldera}{anyt/global//global/global}
\abx@aux@defaultrefcontext{0}{cuota}{anyt/global//global/global}
\abx@aux@defaultrefcontext{0}{florence}{anyt/global//global/global}
\abx@aux@defaultrefcontext{0}{kent}{anyt/global//global/global}
\abx@aux@defaultrefcontext{0}{iac}{anyt/global//global/global}
\abx@aux@defaultrefcontext{0}{shneiderman}{anyt/global//global/global}
\abx@aux@defaultrefcontext{0}{castro}{anyt/global//global/global}
\abx@aux@defaultrefcontext{0}{pete}{anyt/global//global/global}
\abx@aux@defaultrefcontext{0}{fernandez}{anyt/global//global/global}
\abx@aux@defaultrefcontext{0}{raul}{anyt/global//global/global}
\abx@aux@defaultrefcontext{0}{josep}{anyt/global//global/global}
\abx@aux@defaultrefcontext{0}{macias}{anyt/global//global/global}
\abx@aux@defaultrefcontext{0}{riesgos}{anyt/global//global/global}
\abx@aux@defaultrefcontext{0}{edmund}{anyt/global//global/global}
\abx@aux@defaultrefcontext{0}{take}{anyt/global//global/global}
