\relax 
\providecommand\hyper@newdestlabel[2]{}
\@writefile{toc}{\defcounter {refsection}{0}\relax }\@writefile{toc}{\contentsline {chapter}{\numberline {D}Diagramas de secuencia}{183}{appendix.D}}
\@writefile{lof}{\defcounter {refsection}{0}\relax }\@writefile{lof}{\addvspace {10\p@ }}
\@writefile{lot}{\defcounter {refsection}{0}\relax }\@writefile{lot}{\addvspace {10\p@ }}
\@writefile{loa}{\defcounter {refsection}{0}\relax }\@writefile{loa}{\addvspace {10\p@ }}
\newlabel{cap:AnexoD}{{D}{183}{Diagramas de secuencia}{appendix.D}{}}
\@writefile{lof}{\defcounter {refsection}{0}\relax }\@writefile{lof}{\contentsline {figure}{\numberline {D.1}{\ignorespaces Diagrama de secuencia de la Historia de Usuario 6: Navegaci\IeC {\'o}n por la aplicaci\IeC {\'o}n Android\relax }}{183}{figure.D.1}}
\newlabel{RF1}{184}
\@writefile{lof}{\defcounter {refsection}{0}\relax }\@writefile{lof}{\contentsline {figure}{\numberline {D.2}{\ignorespaces Diagrama de secuencia de la Historia de Usuario 5: Acceso a la aplicaci\IeC {\'o}n Android}}{184}{figure.caption.265}}
\@writefile{lof}{\defcounter {refsection}{0}\relax }\@writefile{lof}{\contentsline {subfigure}{\numberline{(a)}{\ignorespaces {Prueba de visualizar el perfil de usuario}}}{184}{figure.caption.265}}
\@writefile{lof}{\defcounter {refsection}{0}\relax }\@writefile{lof}{\contentsline {subfigure}{\numberline{(b)}{\ignorespaces {Prueba de modificar el perfil de usuario}}}{184}{figure.caption.265}}
\@writefile{lof}{\defcounter {refsection}{0}\relax }\@writefile{lof}{\contentsline {subfigure}{\numberline{(a)}{\ignorespaces {Pantalla de Citas}}}{184}{figure.caption.265}}
\@writefile{lof}{\defcounter {refsection}{0}\relax }\@writefile{lof}{\contentsline {subfigure}{\numberline{(b)}{\ignorespaces {Pantalla de Cita}}}{184}{figure.caption.265}}
\@writefile{lof}{\defcounter {refsection}{0}\relax }\@writefile{lof}{\contentsline {subfigure}{\numberline{(a)}{\ignorespaces {Pantalla de Parajes}}}{184}{figure.caption.265}}
\@writefile{lof}{\defcounter {refsection}{0}\relax }\@writefile{lof}{\contentsline {subfigure}{\numberline{(b)}{\ignorespaces {Pantalla de Paraje}}}{184}{figure.caption.265}}
\@writefile{lof}{\defcounter {refsection}{0}\relax }\@writefile{lof}{\contentsline {subfigure}{\numberline{(a)}{\ignorespaces {Estructura de las clases de la aplicaci\IeC {\'o}n m\IeC {\'o}vil}}}{184}{figure.caption.265}}
\@writefile{lof}{\defcounter {refsection}{0}\relax }\@writefile{lof}{\contentsline {subfigure}{\numberline{(b)}{\ignorespaces {Estructura de las vistas de la aplicaci\IeC {\'o}n m\IeC {\'o}vil}}}{184}{figure.caption.265}}
\newlabel{RF2}{185}
\@writefile{lof}{\defcounter {refsection}{0}\relax }\@writefile{lof}{\contentsline {figure}{\numberline {D.3}{\ignorespaces Diagrama de secuencia de la Historia de Usuario 7: Creaci\IeC {\'o}n de nuevas citas}}{185}{figure.caption.266}}
\newlabel{RF3}{186}
\@writefile{lof}{\defcounter {refsection}{0}\relax }\@writefile{lof}{\contentsline {figure}{\numberline {D.4}{\ignorespaces Diagrama de secuencia de la Historia de Usuario 8: Visualizaci\IeC {\'o}n de las citas}}{186}{figure.caption.267}}
\newlabel{RF4}{187}
\@writefile{lof}{\defcounter {refsection}{0}\relax }\@writefile{lof}{\contentsline {figure}{\numberline {D.5}{\ignorespaces Diagrama de secuencia de la Historia de Usuario 9: Gesti\IeC {\'o}n de las citas}}{187}{figure.caption.268}}
\newlabel{RF5}{188}
\@writefile{lof}{\defcounter {refsection}{0}\relax }\@writefile{lof}{\contentsline {figure}{\numberline {D.6}{\ignorespaces Diagrama de secuencia de la Historia de Usuario 10: Visualizaci\IeC {\'o}n de las citas del servidor remoto}}{188}{figure.caption.269}}
\newlabel{RF6}{189}
\@writefile{lof}{\defcounter {refsection}{0}\relax }\@writefile{lof}{\contentsline {figure}{\numberline {D.7}{\ignorespaces Diagrama de secuencia de la Historia de Usuario 11: Visualizaci\IeC {\'o}n de los parajes}}{189}{figure.caption.270}}
\newlabel{RF7}{190}
\@writefile{lof}{\defcounter {refsection}{0}\relax }\@writefile{lof}{\contentsline {figure}{\numberline {D.8}{\ignorespaces Diagrama de secuencia de la Historia de Usuario 12: Gesti\IeC {\'o}n del perfil de usuario}}{190}{figure.caption.271}}
\@setckpt{./caps/AnexoD}{
\setcounter{page}{191}
\setcounter{equation}{0}
\setcounter{enumi}{10}
\setcounter{enumii}{0}
\setcounter{enumiii}{0}
\setcounter{enumiv}{0}
\setcounter{footnote}{0}
\setcounter{mpfootnote}{0}
\setcounter{part}{0}
\setcounter{chapter}{4}
\setcounter{section}{0}
\setcounter{subsection}{0}
\setcounter{subsubsection}{0}
\setcounter{paragraph}{0}
\setcounter{subparagraph}{0}
\setcounter{figure}{8}
\setcounter{table}{0}
\setcounter{parentequation}{0}
\setcounter{Item}{33}
\setcounter{Hfootnote}{0}
\setcounter{bookmark@seq@number}{139}
\setcounter{nlinenum}{0}
\setcounter{float@type}{8}
\setcounter{subfigure}{0}
\setcounter{lofdepth}{1}
\setcounter{subtable}{0}
\setcounter{lotdepth}{1}
\setcounter{r@tfl@t}{7}
\setcounter{lstnumber}{2}
\setcounter{AlgoLine}{0}
\setcounter{algocfline}{0}
\setcounter{algocfproc}{0}
\setcounter{algocf}{0}
\setcounter{ContinuedFloat}{0}
\setcounter{tabx@nest}{0}
\setcounter{listtotal}{0}
\setcounter{listcount}{0}
\setcounter{liststart}{0}
\setcounter{liststop}{0}
\setcounter{citecount}{0}
\setcounter{citetotal}{0}
\setcounter{multicitecount}{0}
\setcounter{multicitetotal}{0}
\setcounter{instcount}{102}
\setcounter{maxnames}{3}
\setcounter{minnames}{1}
\setcounter{maxitems}{3}
\setcounter{minitems}{1}
\setcounter{citecounter}{0}
\setcounter{savedcitecounter}{0}
\setcounter{uniquelist}{0}
\setcounter{uniquename}{0}
\setcounter{refsection}{0}
\setcounter{refsegment}{0}
\setcounter{maxextratitle}{0}
\setcounter{maxextratitleyear}{0}
\setcounter{maxextradate}{0}
\setcounter{maxextraalpha}{5}
\setcounter{abbrvpenalty}{50}
\setcounter{highnamepenalty}{50}
\setcounter{lownamepenalty}{25}
\setcounter{maxparens}{3}
\setcounter{parenlevel}{0}
\setcounter{mincomprange}{10}
\setcounter{maxcomprange}{100000}
\setcounter{mincompwidth}{1}
\setcounter{afterword}{0}
\setcounter{savedafterword}{0}
\setcounter{annotator}{0}
\setcounter{savedannotator}{0}
\setcounter{author}{0}
\setcounter{savedauthor}{0}
\setcounter{bookauthor}{0}
\setcounter{savedbookauthor}{0}
\setcounter{commentator}{0}
\setcounter{savedcommentator}{0}
\setcounter{editor}{0}
\setcounter{savededitor}{0}
\setcounter{editora}{0}
\setcounter{savededitora}{0}
\setcounter{editorb}{0}
\setcounter{savededitorb}{0}
\setcounter{editorc}{0}
\setcounter{savededitorc}{0}
\setcounter{foreword}{0}
\setcounter{savedforeword}{0}
\setcounter{holder}{0}
\setcounter{savedholder}{0}
\setcounter{introduction}{0}
\setcounter{savedintroduction}{0}
\setcounter{namea}{0}
\setcounter{savednamea}{0}
\setcounter{nameb}{0}
\setcounter{savednameb}{0}
\setcounter{namec}{0}
\setcounter{savednamec}{0}
\setcounter{translator}{0}
\setcounter{savedtranslator}{0}
\setcounter{shortauthor}{0}
\setcounter{savedshortauthor}{0}
\setcounter{shorteditor}{0}
\setcounter{savedshorteditor}{0}
\setcounter{labelname}{0}
\setcounter{savedlabelname}{0}
\setcounter{institution}{0}
\setcounter{savedinstitution}{0}
\setcounter{lista}{0}
\setcounter{savedlista}{0}
\setcounter{listb}{0}
\setcounter{savedlistb}{0}
\setcounter{listc}{0}
\setcounter{savedlistc}{0}
\setcounter{listd}{0}
\setcounter{savedlistd}{0}
\setcounter{liste}{0}
\setcounter{savedliste}{0}
\setcounter{listf}{0}
\setcounter{savedlistf}{0}
\setcounter{location}{0}
\setcounter{savedlocation}{0}
\setcounter{organization}{0}
\setcounter{savedorganization}{0}
\setcounter{origlocation}{0}
\setcounter{savedoriglocation}{0}
\setcounter{origpublisher}{0}
\setcounter{savedorigpublisher}{0}
\setcounter{publisher}{0}
\setcounter{savedpublisher}{0}
\setcounter{language}{0}
\setcounter{savedlanguage}{0}
\setcounter{origlanguage}{0}
\setcounter{savedoriglanguage}{0}
\setcounter{pageref}{0}
\setcounter{savedpageref}{0}
\setcounter{textcitecount}{0}
\setcounter{textcitetotal}{0}
\setcounter{textcitemaxnames}{0}
\setcounter{biburlnumpenalty}{0}
\setcounter{biburlucpenalty}{0}
\setcounter{biburllcpenalty}{0}
\setcounter{smartand}{1}
\setcounter{bbx:relatedcount}{0}
\setcounter{bbx:relatedtotal}{0}
\setcounter{section@level}{1}
\setcounter{lstlisting}{0}
\setcounter{totpages}{30}
}
