\relax 
\providecommand\hyper@newdestlabel[2]{}
\@writefile{toc}{\defcounter {refsection}{0}\relax }\@writefile{toc}{\contentsline {chapter}{\numberline {3}Antecedentes}{53}{chapter.3}}
\@writefile{lof}{\defcounter {refsection}{0}\relax }\@writefile{lof}{\addvspace {10\p@ }}
\@writefile{lot}{\defcounter {refsection}{0}\relax }\@writefile{lot}{\addvspace {10\p@ }}
\@writefile{loa}{\defcounter {refsection}{0}\relax }\@writefile{loa}{\addvspace {10\p@ }}
\newlabel{cap:Antecedentes}{{3}{53}{Antecedentes}{chapter.3}{}}
\@writefile{toc}{\defcounter {refsection}{0}\relax }\@writefile{toc}{\contentsline {section}{\numberline {3.1}Fundamentos te\IeC {\'o}ricos}{53}{section.3.1}}
\newlabel{sec:Fundamentos te\IeC {\'o}ricos}{{3.1}{53}{Fundamentos teóricos}{section.3.1}{}}
\@writefile{lof}{\defcounter {refsection}{0}\relax }\@writefile{lof}{\contentsline {figure}{\numberline {3.1}{\ignorespaces Personas fotografiando un ave para su estudio}}{54}{figure.caption.72}}
\@writefile{lof}{\defcounter {refsection}{0}\relax }\@writefile{lof}{\contentsline {figure}{\numberline {3.2}{\ignorespaces Personas observando aves en plena competici\IeC {\'o}n}}{55}{figure.caption.73}}
\@writefile{lof}{\defcounter {refsection}{0}\relax }\@writefile{lof}{\contentsline {figure}{\numberline {3.3}{\ignorespaces Ejemplo de c\IeC {\'a}mara web remota}}{56}{figure.caption.74}}
\newlabel{fig:cams}{{3.3}{56}{Ejemplo de cámara web remota}{figure.caption.74}{}}
\@writefile{lof}{\defcounter {refsection}{0}\relax }\@writefile{lof}{\contentsline {figure}{\numberline {3.4}{\ignorespaces Ejemplo de foro dedicado al avistamiento de aves}}{57}{figure.caption.75}}
\newlabel{fig:forum}{{3.4}{57}{Ejemplo de foro dedicado al avistamiento de aves}{figure.caption.75}{}}
\@writefile{toc}{\defcounter {refsection}{0}\relax }\@writefile{toc}{\contentsline {section}{\numberline {3.2}Fundamentos tecnol\IeC {\'o}gicos}{57}{section.3.2}}
\newlabel{sec:Fundamentos tecnol\IeC {\'o}gicos}{{3.2}{57}{Fundamentos tecnológicos}{section.3.2}{}}
\@writefile{toc}{\defcounter {refsection}{0}\relax }\@writefile{toc}{\contentsline {subsection}{\numberline {3.2.1}Dispositivos m\IeC {\'o}viles}{57}{subsection.3.2.1}}
\newlabel{subsec:Dispositivos m\IeC {\'o}viles antecedentes}{{3.2.1}{57}{Dispositivos móviles}{subsection.3.2.1}{}}
\@writefile{lof}{\defcounter {refsection}{0}\relax }\@writefile{lof}{\contentsline {figure}{\numberline {3.5}{\ignorespaces Tiempo medio de conexi\IeC {\'o}n diario}}{58}{figure.caption.76}}
\newlabel{fig:tiempoCon}{{3.5}{58}{Tiempo medio de conexión diario}{figure.caption.76}{}}
\@writefile{toc}{\defcounter {refsection}{0}\relax }\@writefile{toc}{\contentsline {subsection}{\numberline {3.2.2}Android}{58}{subsection.3.2.2}}
\newlabel{subsec:Android}{{3.2.2}{58}{Android}{subsection.3.2.2}{}}
\@writefile{lof}{\defcounter {refsection}{0}\relax }\@writefile{lof}{\contentsline {figure}{\numberline {3.6}{\ignorespaces Cuota de mercado de Android}}{58}{figure.caption.77}}
\newlabel{fig:cuotaAndroid}{{3.6}{58}{Cuota de mercado de Android}{figure.caption.77}{}}
\@writefile{lof}{\defcounter {refsection}{0}\relax }\@writefile{lof}{\contentsline {figure}{\numberline {3.7}{\ignorespaces Versiones actuales de Android}}{59}{figure.caption.78}}
\newlabel{fig:versionesAndroid}{{3.7}{59}{Versiones actuales de Android}{figure.caption.78}{}}
\@writefile{lof}{\defcounter {refsection}{0}\relax }\@writefile{lof}{\contentsline {figure}{\numberline {3.8}{\ignorespaces Mejoras que suponen la implementaci\IeC {\'o}n de Treble}}{60}{figure.caption.79}}
\newlabel{fig:treble}{{3.8}{60}{Mejoras que suponen la implementación de Treble}{figure.caption.79}{}}
\newlabel{fig:evolucionMoviles}{{3.9(a)}{61}{Subfigure 3 3.9(a)}{subfigure.3.9.1}{}}
\newlabel{sub@fig:evolucionMoviles}{{(a)}{61}{Subfigure 3 3.9(a)\relax }{subfigure.3.9.1}{}}
\newlabel{fig:evolucionApps}{{3.9(b)}{61}{Subfigure 3 3.9(b)}{subfigure.3.9.2}{}}
\newlabel{sub@fig:evolucionApps}{{(b)}{61}{Subfigure 3 3.9(b)\relax }{subfigure.3.9.2}{}}
\@writefile{lof}{\defcounter {refsection}{0}\relax }\@writefile{lof}{\contentsline {figure}{\numberline {3.9}{\ignorespaces Evoluci\IeC {\'o}n de los S.O y las apps en dispositivos m\IeC {\'o}viles}}{61}{figure.caption.80}}
\newlabel{fig:evolucionMovilesApps}{{3.9}{61}{Evolución de los S.O y las apps en dispositivos móviles}{figure.caption.80}{}}
\@writefile{toc}{\defcounter {refsection}{0}\relax }\@writefile{toc}{\contentsline {subsection}{\numberline {3.2.3}Posicionamiento GPS}{61}{subsection.3.2.3}}
\newlabel{subsec:Posicionamiento GPS}{{3.2.3}{61}{Posicionamiento GPS}{subsection.3.2.3}{}}
\@writefile{lof}{\defcounter {refsection}{0}\relax }\@writefile{lof}{\contentsline {figure}{\numberline {3.10}{\ignorespaces Ejemplo de triangulaci\IeC {\'o}n usando el GPS}}{62}{figure.caption.81}}
\newlabel{fig:triangulacion}{{3.10}{62}{Ejemplo de triangulación usando el GPS}{figure.caption.81}{}}
\@writefile{lof}{\defcounter {refsection}{0}\relax }\@writefile{lof}{\contentsline {figure}{\numberline {3.11}{\ignorespaces Ejemplo de Google Maps}}{62}{figure.caption.82}}
\newlabel{fig:googleMaps}{{3.11}{62}{Ejemplo de Google Maps}{figure.caption.82}{}}
\@writefile{toc}{\defcounter {refsection}{0}\relax }\@writefile{toc}{\contentsline {subsection}{\numberline {3.2.4}REST}{63}{subsection.3.2.4}}
\newlabel{subsec:REST}{{3.2.4}{63}{REST}{subsection.3.2.4}{}}
\@writefile{lof}{\defcounter {refsection}{0}\relax }\@writefile{lof}{\contentsline {figure}{\numberline {3.12}{\ignorespaces Ejemplo de API Rest}}{63}{figure.caption.83}}
\newlabel{fig:apiRest}{{3.12}{63}{Ejemplo de API Rest}{figure.caption.83}{}}
\@writefile{toc}{\defcounter {refsection}{0}\relax }\@writefile{toc}{\contentsline {subsection}{\numberline {3.2.5}Servidor HTTP APACHE}{63}{subsection.3.2.5}}
\newlabel{subsec:Servidor HTTP APACHE}{{3.2.5}{63}{Servidor HTTP APACHE}{subsection.3.2.5}{}}
\@writefile{toc}{\defcounter {refsection}{0}\relax }\@writefile{toc}{\contentsline {subsection}{\numberline {3.2.6}MariaDB}{64}{subsection.3.2.6}}
\newlabel{subsec:MariaDB}{{3.2.6}{64}{MariaDB}{subsection.3.2.6}{}}
\@writefile{toc}{\defcounter {refsection}{0}\relax }\@writefile{toc}{\contentsline {subsection}{\numberline {3.2.7}PHP}{64}{subsection.3.2.7}}
\newlabel{subsec:PHP}{{3.2.7}{64}{PHP}{subsection.3.2.7}{}}
\@writefile{toc}{\defcounter {refsection}{0}\relax }\@writefile{toc}{\contentsline {subsection}{\numberline {3.2.8}SQLite}{64}{subsection.3.2.8}}
\newlabel{subsec:SQLite}{{3.2.8}{64}{SQLite}{subsection.3.2.8}{}}
\@writefile{toc}{\defcounter {refsection}{0}\relax }\@writefile{toc}{\contentsline {subsection}{\numberline {3.2.9}HTML/CSS/JAVASCRIPT/BOOTSTRAP}{64}{subsection.3.2.9}}
\newlabel{subsec:HTML/CSS/JAVASCRIPT/BOOTSTRAP}{{3.2.9}{64}{HTML/CSS/JAVASCRIPT/BOOTSTRAP}{subsection.3.2.9}{}}
\@writefile{toc}{\defcounter {refsection}{0}\relax }\@writefile{toc}{\contentsline {section}{\numberline {3.3}Trabajos relacionados}{65}{section.3.3}}
\newlabel{sec:Trabajos relacionados}{{3.3}{65}{Trabajos relacionados}{section.3.3}{}}
\@writefile{toc}{\defcounter {refsection}{0}\relax }\@writefile{toc}{\contentsline {subsection}{\numberline {3.3.1}eBird by Cornell Lab}{65}{subsection.3.3.1}}
\newlabel{subsec:eBird by Cornell Lab}{{3.3.1}{65}{eBird by Cornell Lab}{subsection.3.3.1}{}}
\@writefile{lof}{\defcounter {refsection}{0}\relax }\@writefile{lof}{\contentsline {figure}{\numberline {3.13}{\ignorespaces eBird by Cornell Lab para dispositivo m\IeC {\'o}vil}}{65}{figure.caption.84}}
\@writefile{lof}{\defcounter {refsection}{0}\relax }\@writefile{lof}{\contentsline {figure}{\numberline {3.14}{\ignorespaces eBird by Cornell Lab para sitio web}}{65}{figure.caption.85}}
\@writefile{toc}{\defcounter {refsection}{0}\relax }\@writefile{toc}{\contentsline {subsection}{\numberline {3.3.2}Birdtrack}{66}{subsection.3.3.2}}
\newlabel{subsec:Birdtrack}{{3.3.2}{66}{Birdtrack}{subsection.3.3.2}{}}
\@writefile{lof}{\defcounter {refsection}{0}\relax }\@writefile{lof}{\contentsline {figure}{\numberline {3.15}{\ignorespaces Birdtrack para dispositivo m\IeC {\'o}vil}}{66}{figure.caption.86}}
\@writefile{lof}{\defcounter {refsection}{0}\relax }\@writefile{lof}{\contentsline {figure}{\numberline {3.16}{\ignorespaces Birdtrack para sitio web}}{66}{figure.caption.87}}
\@writefile{toc}{\defcounter {refsection}{0}\relax }\@writefile{toc}{\contentsline {subsection}{\numberline {3.3.3}iNaturalist}{67}{subsection.3.3.3}}
\newlabel{subsec:iNaturalist}{{3.3.3}{67}{iNaturalist}{subsection.3.3.3}{}}
\@writefile{lof}{\defcounter {refsection}{0}\relax }\@writefile{lof}{\contentsline {figure}{\numberline {3.17}{\ignorespaces iNaturalist}}{67}{figure.caption.88}}
\@writefile{toc}{\defcounter {refsection}{0}\relax }\@writefile{toc}{\contentsline {subsection}{\numberline {3.3.4}iBird Pro Birds North America}{67}{subsection.3.3.4}}
\newlabel{subsec:iBird Pro Birds North America}{{3.3.4}{67}{iBird Pro Birds North America}{subsection.3.3.4}{}}
\@writefile{toc}{\defcounter {refsection}{0}\relax }\@writefile{toc}{\contentsline {subsection}{\numberline {3.3.5}CyberTracker}{67}{subsection.3.3.5}}
\newlabel{subsec:CyberTracker}{{3.3.5}{67}{CyberTracker}{subsection.3.3.5}{}}
\@writefile{lof}{\defcounter {refsection}{0}\relax }\@writefile{lof}{\contentsline {figure}{\numberline {3.18}{\ignorespaces CyberTracker}}{68}{figure.caption.89}}
\@writefile{toc}{\defcounter {refsection}{0}\relax }\@writefile{toc}{\contentsline {subsection}{\numberline {3.3.6}Identificador de aves}{68}{subsection.3.3.6}}
\newlabel{subsec:Identificador de aves}{{3.3.6}{68}{Identificador de aves}{subsection.3.3.6}{}}
\@writefile{lof}{\defcounter {refsection}{0}\relax }\@writefile{lof}{\contentsline {figure}{\numberline {3.19}{\ignorespaces Identificador de aves}}{68}{figure.caption.90}}
\@writefile{toc}{\defcounter {refsection}{0}\relax }\@writefile{toc}{\contentsline {subsection}{\numberline {3.3.7}Aves Acu\IeC {\'a}ticas de SEO/BirdLife}{68}{subsection.3.3.7}}
\newlabel{subsec:Aves Acu\IeC {\'a}ticas de SEO/BirdLife}{{3.3.7}{68}{Aves Acuáticas de SEO/BirdLife}{subsection.3.3.7}{}}
\@writefile{lof}{\defcounter {refsection}{0}\relax }\@writefile{lof}{\contentsline {figure}{\numberline {3.20}{\ignorespaces Aves Acu\IeC {\'a}ticas de SEO/BirdLife}}{69}{figure.caption.91}}
\@writefile{toc}{\defcounter {refsection}{0}\relax }\@writefile{toc}{\contentsline {subsection}{\numberline {3.3.8}Merlin Bird ID de Cornell Lab}{69}{subsection.3.3.8}}
\newlabel{subsec:Merlin Bird ID de Cornell Lab}{{3.3.8}{69}{Merlin Bird ID de Cornell Lab}{subsection.3.3.8}{}}
\@writefile{lof}{\defcounter {refsection}{0}\relax }\@writefile{lof}{\contentsline {figure}{\numberline {3.21}{\ignorespaces Merlin Bird ID de Cornell Lab}}{69}{figure.caption.92}}
\@writefile{toc}{\defcounter {refsection}{0}\relax }\@writefile{toc}{\contentsline {subsection}{\numberline {3.3.9}Ornithopedia Europe}{70}{subsection.3.3.9}}
\newlabel{subsec:Ornithopedia Europe}{{3.3.9}{70}{Ornithopedia Europe}{subsection.3.3.9}{}}
\@writefile{lof}{\defcounter {refsection}{0}\relax }\@writefile{lof}{\contentsline {figure}{\numberline {3.22}{\ignorespaces Ornithopedia Europe}}{70}{figure.caption.93}}
\@writefile{toc}{\defcounter {refsection}{0}\relax }\@writefile{toc}{\contentsline {subsection}{\numberline {3.3.10}Bird Counter}{70}{subsection.3.3.10}}
\newlabel{subsec:Bird Counter}{{3.3.10}{70}{Bird Counter}{subsection.3.3.10}{}}
\@writefile{lof}{\defcounter {refsection}{0}\relax }\@writefile{lof}{\contentsline {figure}{\numberline {3.23}{\ignorespaces Bird Counter}}{70}{figure.caption.94}}
\@setckpt{./caps/Antecedentes}{
\setcounter{page}{71}
\setcounter{equation}{0}
\setcounter{enumi}{5}
\setcounter{enumii}{0}
\setcounter{enumiii}{0}
\setcounter{enumiv}{0}
\setcounter{footnote}{0}
\setcounter{mpfootnote}{0}
\setcounter{part}{0}
\setcounter{chapter}{3}
\setcounter{section}{3}
\setcounter{subsection}{10}
\setcounter{subsubsection}{0}
\setcounter{paragraph}{0}
\setcounter{subparagraph}{0}
\setcounter{figure}{23}
\setcounter{table}{0}
\setcounter{parentequation}{0}
\setcounter{Item}{23}
\setcounter{Hfootnote}{0}
\setcounter{bookmark@seq@number}{44}
\setcounter{nlinenum}{0}
\setcounter{float@type}{8}
\setcounter{subfigure}{0}
\setcounter{lofdepth}{1}
\setcounter{subtable}{0}
\setcounter{lotdepth}{1}
\setcounter{r@tfl@t}{0}
\setcounter{lstnumber}{1}
\setcounter{AlgoLine}{0}
\setcounter{algocfline}{0}
\setcounter{algocfproc}{0}
\setcounter{algocf}{0}
\setcounter{ContinuedFloat}{0}
\setcounter{tabx@nest}{0}
\setcounter{listtotal}{0}
\setcounter{listcount}{0}
\setcounter{liststart}{0}
\setcounter{liststop}{0}
\setcounter{citecount}{0}
\setcounter{citetotal}{0}
\setcounter{multicitecount}{0}
\setcounter{multicitetotal}{0}
\setcounter{instcount}{50}
\setcounter{maxnames}{3}
\setcounter{minnames}{1}
\setcounter{maxitems}{3}
\setcounter{minitems}{1}
\setcounter{citecounter}{0}
\setcounter{savedcitecounter}{0}
\setcounter{uniquelist}{0}
\setcounter{uniquename}{0}
\setcounter{refsection}{0}
\setcounter{refsegment}{0}
\setcounter{maxextratitle}{0}
\setcounter{maxextratitleyear}{0}
\setcounter{maxextradate}{0}
\setcounter{maxextraalpha}{5}
\setcounter{abbrvpenalty}{50}
\setcounter{highnamepenalty}{50}
\setcounter{lownamepenalty}{25}
\setcounter{maxparens}{3}
\setcounter{parenlevel}{0}
\setcounter{mincomprange}{10}
\setcounter{maxcomprange}{100000}
\setcounter{mincompwidth}{1}
\setcounter{afterword}{0}
\setcounter{savedafterword}{0}
\setcounter{annotator}{0}
\setcounter{savedannotator}{0}
\setcounter{author}{0}
\setcounter{savedauthor}{0}
\setcounter{bookauthor}{0}
\setcounter{savedbookauthor}{0}
\setcounter{commentator}{0}
\setcounter{savedcommentator}{0}
\setcounter{editor}{0}
\setcounter{savededitor}{0}
\setcounter{editora}{0}
\setcounter{savededitora}{0}
\setcounter{editorb}{0}
\setcounter{savededitorb}{0}
\setcounter{editorc}{0}
\setcounter{savededitorc}{0}
\setcounter{foreword}{0}
\setcounter{savedforeword}{0}
\setcounter{holder}{0}
\setcounter{savedholder}{0}
\setcounter{introduction}{0}
\setcounter{savedintroduction}{0}
\setcounter{namea}{0}
\setcounter{savednamea}{0}
\setcounter{nameb}{0}
\setcounter{savednameb}{0}
\setcounter{namec}{0}
\setcounter{savednamec}{0}
\setcounter{translator}{0}
\setcounter{savedtranslator}{0}
\setcounter{shortauthor}{0}
\setcounter{savedshortauthor}{0}
\setcounter{shorteditor}{0}
\setcounter{savedshorteditor}{0}
\setcounter{labelname}{0}
\setcounter{savedlabelname}{0}
\setcounter{institution}{0}
\setcounter{savedinstitution}{0}
\setcounter{lista}{0}
\setcounter{savedlista}{0}
\setcounter{listb}{0}
\setcounter{savedlistb}{0}
\setcounter{listc}{0}
\setcounter{savedlistc}{0}
\setcounter{listd}{0}
\setcounter{savedlistd}{0}
\setcounter{liste}{0}
\setcounter{savedliste}{0}
\setcounter{listf}{0}
\setcounter{savedlistf}{0}
\setcounter{location}{0}
\setcounter{savedlocation}{0}
\setcounter{organization}{0}
\setcounter{savedorganization}{0}
\setcounter{origlocation}{0}
\setcounter{savedoriglocation}{0}
\setcounter{origpublisher}{0}
\setcounter{savedorigpublisher}{0}
\setcounter{publisher}{0}
\setcounter{savedpublisher}{0}
\setcounter{language}{0}
\setcounter{savedlanguage}{0}
\setcounter{origlanguage}{0}
\setcounter{savedoriglanguage}{0}
\setcounter{pageref}{0}
\setcounter{savedpageref}{0}
\setcounter{textcitecount}{0}
\setcounter{textcitetotal}{0}
\setcounter{textcitemaxnames}{0}
\setcounter{biburlnumpenalty}{0}
\setcounter{biburlucpenalty}{0}
\setcounter{biburllcpenalty}{0}
\setcounter{smartand}{1}
\setcounter{bbx:relatedcount}{0}
\setcounter{bbx:relatedtotal}{0}
\setcounter{section@level}{2}
\setcounter{lstlisting}{0}
\setcounter{totpages}{30}
}
