\relax 
\providecommand\hyper@newdestlabel[2]{}
\@writefile{toc}{\defcounter {refsection}{0}\relax }\@writefile{toc}{\contentsline {chapter}{\numberline {4}Metodolog\IeC {\'\i }a}{71}{chapter.4}}
\@writefile{lof}{\defcounter {refsection}{0}\relax }\@writefile{lof}{\addvspace {10\p@ }}
\@writefile{lot}{\defcounter {refsection}{0}\relax }\@writefile{lot}{\addvspace {10\p@ }}
\@writefile{loa}{\defcounter {refsection}{0}\relax }\@writefile{loa}{\addvspace {10\p@ }}
\newlabel{cap:Metodologia}{{4}{71}{Metodología}{chapter.4}{}}
\@writefile{toc}{\defcounter {refsection}{0}\relax }\@writefile{toc}{\contentsline {section}{\numberline {4.1}Metodolog\IeC {\'\i }a de desarrollo}{71}{section.4.1}}
\newlabel{sec:Metodolog\IeC {\'\i }a de desarrollo}{{4.1}{71}{Metodología de desarrollo}{section.4.1}{}}
\@writefile{lof}{\defcounter {refsection}{0}\relax }\@writefile{lof}{\contentsline {figure}{\numberline {4.1}{\ignorespaces Comparativa de los tipos de metodolog\IeC {\'\i }a}}{71}{figure.caption.95}}
\newlabel{fig:compmet}{{4.1}{71}{Comparativa de los tipos de metodología}{figure.caption.95}{}}
\@writefile{toc}{\defcounter {refsection}{0}\relax }\@writefile{toc}{\contentsline {section}{\numberline {4.2}Metodolog\IeC {\'\i }as \IeC {\'a}giles}{72}{section.4.2}}
\newlabel{sec:Metodolog\IeC {\'\i }as \IeC {\'a}giles}{{4.2}{72}{Metodologías ágiles}{section.4.2}{}}
\@writefile{toc}{\defcounter {refsection}{0}\relax }\@writefile{toc}{\contentsline {subsection}{\numberline {4.2.1}Justificaci\IeC {\'o}n de elecci\IeC {\'o}n}{72}{subsection.4.2.1}}
\newlabel{Justificaci\IeC {\'o}n de elecci\IeC {\'o}n}{{4.2.1}{72}{Justificación de elección}{subsection.4.2.1}{}}
\@writefile{toc}{\defcounter {refsection}{0}\relax }\@writefile{toc}{\contentsline {section}{\numberline {4.3}eXtreme Programming}{72}{section.4.3}}
\newlabel{sec:eXtreme Programming}{{4.3}{72}{eXtreme Programming}{section.4.3}{}}
\@writefile{toc}{\defcounter {refsection}{0}\relax }\@writefile{toc}{\contentsline {subsection}{\numberline {4.3.1}Ciclo de vida}{73}{subsection.4.3.1}}
\newlabel{Ciclo de vida}{{4.3.1}{73}{Ciclo de vida}{subsection.4.3.1}{}}
\@writefile{lof}{\defcounter {refsection}{0}\relax }\@writefile{lof}{\contentsline {figure}{\numberline {4.2}{\ignorespaces Ciclo de vida en eXtreme Programming}}{74}{figure.caption.96}}
\newlabel{fig:ciclo}{{4.2}{74}{Ciclo de vida en eXtreme Programming}{figure.caption.96}{}}
\@writefile{toc}{\defcounter {refsection}{0}\relax }\@writefile{toc}{\contentsline {subsection}{\numberline {4.3.2}Valores}{74}{subsection.4.3.2}}
\newlabel{Valores}{{4.3.2}{74}{Valores}{subsection.4.3.2}{}}
\@writefile{lof}{\defcounter {refsection}{0}\relax }\@writefile{lof}{\contentsline {figure}{\numberline {4.3}{\ignorespaces Valores de eXtreme Programming}}{75}{figure.caption.97}}
\newlabel{fig:valores}{{4.3}{75}{Valores de eXtreme Programming}{figure.caption.97}{}}
\@writefile{toc}{\defcounter {refsection}{0}\relax }\@writefile{toc}{\contentsline {subsection}{\numberline {4.3.3}Principios}{75}{subsection.4.3.3}}
\newlabel{Principios}{{4.3.3}{75}{Principios}{subsection.4.3.3}{}}
\@writefile{toc}{\defcounter {refsection}{0}\relax }\@writefile{toc}{\contentsline {subsection}{\numberline {4.3.4}Variables}{76}{subsection.4.3.4}}
\newlabel{Variables}{{4.3.4}{76}{Variables}{subsection.4.3.4}{}}
\@writefile{lof}{\defcounter {refsection}{0}\relax }\@writefile{lof}{\contentsline {figure}{\numberline {4.4}{\ignorespaces Variables de eXtreme Programming}}{77}{figure.caption.98}}
\newlabel{fig:triangulo}{{4.4}{77}{Variables de eXtreme Programming}{figure.caption.98}{}}
\@writefile{toc}{\defcounter {refsection}{0}\relax }\@writefile{toc}{\contentsline {subsection}{\numberline {4.3.5}Roles}{77}{subsection.4.3.5}}
\newlabel{Roles}{{4.3.5}{77}{Roles}{subsection.4.3.5}{}}
\@writefile{toc}{\defcounter {refsection}{0}\relax }\@writefile{toc}{\contentsline {subsection}{\numberline {4.3.6}Artefactos}{78}{subsection.4.3.6}}
\newlabel{Artefactos}{{4.3.6}{78}{Artefactos}{subsection.4.3.6}{}}
\@writefile{lof}{\defcounter {refsection}{0}\relax }\@writefile{lof}{\contentsline {figure}{\numberline {4.5}{\ignorespaces Ejemplo de Historia de Usuario}}{78}{figure.caption.99}}
\newlabel{fig:hdumet}{{4.5}{78}{Ejemplo de Historia de Usuario}{figure.caption.99}{}}
\@writefile{toc}{\defcounter {refsection}{0}\relax }\@writefile{toc}{\contentsline {subsection}{\numberline {4.3.7}Pr\IeC {\'a}cticas}{79}{subsection.4.3.7}}
\newlabel{Pr\IeC {\'a}cticas}{{4.3.7}{79}{Prácticas}{subsection.4.3.7}{}}
\@writefile{toc}{\defcounter {refsection}{0}\relax }\@writefile{toc}{\contentsline {subsection}{\numberline {4.3.8}Justificaci\IeC {\'o}n de elecci\IeC {\'o}n}{80}{subsection.4.3.8}}
\newlabel{Justificaci\IeC {\'o}n de elecci\IeC {\'o}n}{{4.3.8}{80}{Justificación de elección}{subsection.4.3.8}{}}
\@writefile{lof}{\defcounter {refsection}{0}\relax }\@writefile{lof}{\contentsline {figure}{\numberline {4.6}{\ignorespaces Puntos de vista utilizados en la comparativa}}{80}{figure.caption.100}}
\newlabel{fig:vistas}{{4.6}{80}{Puntos de vista utilizados en la comparativa}{figure.caption.100}{}}
\@writefile{lof}{\defcounter {refsection}{0}\relax }\@writefile{lof}{\contentsline {figure}{\numberline {4.7}{\ignorespaces Tabla comparativa de las metodolog\IeC {\'\i }as}}{81}{figure.caption.101}}
\newlabel{fig:tablacomparativa}{{4.7}{81}{Tabla comparativa de las metodologías}{figure.caption.101}{}}
\@writefile{toc}{\defcounter {refsection}{0}\relax }\@writefile{toc}{\contentsline {subsection}{\numberline {4.3.9}Aplicaci\IeC {\'o}n de la metodolog\IeC {\'\i }a}{81}{subsection.4.3.9}}
\newlabel{Aplicaci\IeC {\'o}n de la metodolog\IeC {\'\i }a}{{4.3.9}{81}{Aplicación de la metodología}{subsection.4.3.9}{}}
\@setckpt{./caps/Metodologia}{
\setcounter{page}{83}
\setcounter{equation}{0}
\setcounter{enumi}{5}
\setcounter{enumii}{0}
\setcounter{enumiii}{0}
\setcounter{enumiv}{0}
\setcounter{footnote}{0}
\setcounter{mpfootnote}{0}
\setcounter{part}{0}
\setcounter{chapter}{4}
\setcounter{section}{3}
\setcounter{subsection}{9}
\setcounter{subsubsection}{0}
\setcounter{paragraph}{0}
\setcounter{subparagraph}{0}
\setcounter{figure}{7}
\setcounter{table}{0}
\setcounter{parentequation}{0}
\setcounter{Item}{23}
\setcounter{Hfootnote}{0}
\setcounter{bookmark@seq@number}{58}
\setcounter{nlinenum}{0}
\setcounter{float@type}{8}
\setcounter{subfigure}{0}
\setcounter{lofdepth}{1}
\setcounter{subtable}{0}
\setcounter{lotdepth}{1}
\setcounter{r@tfl@t}{0}
\setcounter{lstnumber}{1}
\setcounter{AlgoLine}{0}
\setcounter{algocfline}{0}
\setcounter{algocfproc}{0}
\setcounter{algocf}{0}
\setcounter{ContinuedFloat}{0}
\setcounter{tabx@nest}{0}
\setcounter{listtotal}{0}
\setcounter{listcount}{0}
\setcounter{liststart}{0}
\setcounter{liststop}{0}
\setcounter{citecount}{0}
\setcounter{citetotal}{0}
\setcounter{multicitecount}{0}
\setcounter{multicitetotal}{0}
\setcounter{instcount}{60}
\setcounter{maxnames}{3}
\setcounter{minnames}{1}
\setcounter{maxitems}{3}
\setcounter{minitems}{1}
\setcounter{citecounter}{0}
\setcounter{savedcitecounter}{0}
\setcounter{uniquelist}{0}
\setcounter{uniquename}{0}
\setcounter{refsection}{0}
\setcounter{refsegment}{0}
\setcounter{maxextratitle}{0}
\setcounter{maxextratitleyear}{0}
\setcounter{maxextradate}{0}
\setcounter{maxextraalpha}{5}
\setcounter{abbrvpenalty}{50}
\setcounter{highnamepenalty}{50}
\setcounter{lownamepenalty}{25}
\setcounter{maxparens}{3}
\setcounter{parenlevel}{0}
\setcounter{mincomprange}{10}
\setcounter{maxcomprange}{100000}
\setcounter{mincompwidth}{1}
\setcounter{afterword}{0}
\setcounter{savedafterword}{0}
\setcounter{annotator}{0}
\setcounter{savedannotator}{0}
\setcounter{author}{0}
\setcounter{savedauthor}{0}
\setcounter{bookauthor}{0}
\setcounter{savedbookauthor}{0}
\setcounter{commentator}{0}
\setcounter{savedcommentator}{0}
\setcounter{editor}{0}
\setcounter{savededitor}{0}
\setcounter{editora}{0}
\setcounter{savededitora}{0}
\setcounter{editorb}{0}
\setcounter{savededitorb}{0}
\setcounter{editorc}{0}
\setcounter{savededitorc}{0}
\setcounter{foreword}{0}
\setcounter{savedforeword}{0}
\setcounter{holder}{0}
\setcounter{savedholder}{0}
\setcounter{introduction}{0}
\setcounter{savedintroduction}{0}
\setcounter{namea}{0}
\setcounter{savednamea}{0}
\setcounter{nameb}{0}
\setcounter{savednameb}{0}
\setcounter{namec}{0}
\setcounter{savednamec}{0}
\setcounter{translator}{0}
\setcounter{savedtranslator}{0}
\setcounter{shortauthor}{0}
\setcounter{savedshortauthor}{0}
\setcounter{shorteditor}{0}
\setcounter{savedshorteditor}{0}
\setcounter{labelname}{0}
\setcounter{savedlabelname}{0}
\setcounter{institution}{0}
\setcounter{savedinstitution}{0}
\setcounter{lista}{0}
\setcounter{savedlista}{0}
\setcounter{listb}{0}
\setcounter{savedlistb}{0}
\setcounter{listc}{0}
\setcounter{savedlistc}{0}
\setcounter{listd}{0}
\setcounter{savedlistd}{0}
\setcounter{liste}{0}
\setcounter{savedliste}{0}
\setcounter{listf}{0}
\setcounter{savedlistf}{0}
\setcounter{location}{0}
\setcounter{savedlocation}{0}
\setcounter{organization}{0}
\setcounter{savedorganization}{0}
\setcounter{origlocation}{0}
\setcounter{savedoriglocation}{0}
\setcounter{origpublisher}{0}
\setcounter{savedorigpublisher}{0}
\setcounter{publisher}{0}
\setcounter{savedpublisher}{0}
\setcounter{language}{0}
\setcounter{savedlanguage}{0}
\setcounter{origlanguage}{0}
\setcounter{savedoriglanguage}{0}
\setcounter{pageref}{0}
\setcounter{savedpageref}{0}
\setcounter{textcitecount}{0}
\setcounter{textcitetotal}{0}
\setcounter{textcitemaxnames}{0}
\setcounter{biburlnumpenalty}{0}
\setcounter{biburlucpenalty}{0}
\setcounter{biburllcpenalty}{0}
\setcounter{smartand}{1}
\setcounter{bbx:relatedcount}{0}
\setcounter{bbx:relatedtotal}{0}
\setcounter{section@level}{2}
\setcounter{lstlisting}{0}
\setcounter{totpages}{30}
}
