\relax 
\providecommand\hyper@newdestlabel[2]{}
\@writefile{toc}{\defcounter {refsection}{0}\relax }\@writefile{toc}{\contentsline {chapter}{\numberline {2}Objetivo y herramientas de desarrollo}{39}{chapter.2}}
\@writefile{lof}{\defcounter {refsection}{0}\relax }\@writefile{lof}{\addvspace {10\p@ }}
\@writefile{lot}{\defcounter {refsection}{0}\relax }\@writefile{lot}{\addvspace {10\p@ }}
\@writefile{loa}{\defcounter {refsection}{0}\relax }\@writefile{loa}{\addvspace {10\p@ }}
\newlabel{cap:Objetivo}{{2}{39}{Objetivo y herramientas de desarrollo}{chapter.2}{}}
\@writefile{toc}{\defcounter {refsection}{0}\relax }\@writefile{toc}{\contentsline {section}{\numberline {2.1}Objetivo Principal}{39}{section.2.1}}
\newlabel{sec:Objetivo Principal}{{2.1}{39}{Objetivo Principal}{section.2.1}{}}
\@writefile{toc}{\defcounter {refsection}{0}\relax }\@writefile{toc}{\contentsline {section}{\numberline {2.2}Objetivos Secundarios}{39}{section.2.2}}
\newlabel{sec:Objetivos Secundarios}{{2.2}{39}{Objetivos Secundarios}{section.2.2}{}}
\@writefile{toc}{\defcounter {refsection}{0}\relax }\@writefile{toc}{\contentsline {subsection}{\numberline {2.2.1}Estudio del \IeC {\'a}mbito, tecnolog\IeC {\'\i }as y estado del arte}{39}{subsection.2.2.1}}
\newlabel{subsec:Estudio del \IeC {\'a}mbito, tecnolog\IeC {\'\i }as y estado del arte}{{2.2.1}{39}{Estudio del ámbito, tecnologías y estado del arte}{subsection.2.2.1}{}}
\@writefile{toc}{\defcounter {refsection}{0}\relax }\@writefile{toc}{\contentsline {subsection}{\numberline {2.2.2}Instalaci\IeC {\'o}n y configuraci\IeC {\'o}n del servidor}{39}{subsection.2.2.2}}
\newlabel{subsec:Instalaci\IeC {\'o}n y configuraci\IeC {\'o}n del servidor}{{2.2.2}{39}{Instalación y configuración del servidor}{subsection.2.2.2}{}}
\@writefile{toc}{\defcounter {refsection}{0}\relax }\@writefile{toc}{\contentsline {subsection}{\numberline {2.2.3}Dise\IeC {\~n}ar y desarrollar la APIRest}{40}{subsection.2.2.3}}
\newlabel{subsec:Dise\IeC {\~n}ar y desarrollar la APIRest}{{2.2.3}{40}{Diseñar y desarrollar la APIRest}{subsection.2.2.3}{}}
\@writefile{toc}{\defcounter {refsection}{0}\relax }\@writefile{toc}{\contentsline {subsection}{\numberline {2.2.4}Dise\IeC {\~n}ar y desarrollar la aplicaci\IeC {\'o}n}{40}{subsection.2.2.4}}
\newlabel{subsec:Dise\IeC {\~n}ar y desarrollar la aplicaci\IeC {\'o}n}{{2.2.4}{40}{Diseñar y desarrollar la aplicación}{subsection.2.2.4}{}}
\@writefile{toc}{\defcounter {refsection}{0}\relax }\@writefile{toc}{\contentsline {subsection}{\numberline {2.2.5}Dise\IeC {\~n}ar y desarrollar la web}{40}{subsection.2.2.5}}
\newlabel{subsec:Dise\IeC {\~n}ar y desarrollar la web}{{2.2.5}{40}{Diseñar y desarrollar la web}{subsection.2.2.5}{}}
\@writefile{toc}{\defcounter {refsection}{0}\relax }\@writefile{toc}{\contentsline {subsection}{\numberline {2.2.6}Evaluar y validar el sistema}{40}{subsection.2.2.6}}
\newlabel{subsec:Evaluar y validar el sistema}{{2.2.6}{40}{Evaluar y validar el sistema}{subsection.2.2.6}{}}
\@writefile{toc}{\defcounter {refsection}{0}\relax }\@writefile{toc}{\contentsline {section}{\numberline {2.3}Herramientas}{41}{section.2.3}}
\newlabel{sec:Herramientas}{{2.3}{41}{Herramientas}{section.2.3}{}}
\@writefile{toc}{\defcounter {refsection}{0}\relax }\@writefile{toc}{\contentsline {subsection}{\numberline {2.3.1}Medios Software}{41}{subsection.2.3.1}}
\newlabel{subsec:Medios Software}{{2.3.1}{41}{Medios Software}{subsection.2.3.1}{}}
\@writefile{toc}{\defcounter {refsection}{0}\relax }\@writefile{toc}{\contentsline {subsubsection}{Lenguajes}{41}{section*.26}}
\newlabel{subsubsec:Lenguajes}{{2.3.1}{41}{Lenguajes}{section*.26}{}}
\@writefile{lof}{\defcounter {refsection}{0}\relax }\@writefile{lof}{\contentsline {figure}{\numberline {2.1}{\ignorespaces Logotipo de Java}}{41}{figure.caption.27}}
\newlabel{fig:logoAndroid}{{2.1}{41}{Logotipo de Java}{figure.caption.27}{}}
\@writefile{lof}{\defcounter {refsection}{0}\relax }\@writefile{lof}{\contentsline {figure}{\numberline {2.2}{\ignorespaces Logotipo de SQL}}{41}{figure.caption.28}}
\newlabel{fig:logoSQL}{{2.2}{41}{Logotipo de SQL}{figure.caption.28}{}}
\@writefile{lof}{\defcounter {refsection}{0}\relax }\@writefile{lof}{\contentsline {figure}{\numberline {2.3}{\ignorespaces Logotipo de PHP}}{42}{figure.caption.29}}
\newlabel{fig:logoPHP}{{2.3}{42}{Logotipo de PHP}{figure.caption.29}{}}
\@writefile{lof}{\defcounter {refsection}{0}\relax }\@writefile{lof}{\contentsline {figure}{\numberline {2.4}{\ignorespaces Logotipo de HTML}}{42}{figure.caption.30}}
\newlabel{fig:logoHTML}{{2.4}{42}{Logotipo de HTML}{figure.caption.30}{}}
\@writefile{lof}{\defcounter {refsection}{0}\relax }\@writefile{lof}{\contentsline {figure}{\numberline {2.5}{\ignorespaces Logotipo de CSS}}{42}{figure.caption.31}}
\newlabel{fig:logoCSS}{{2.5}{42}{Logotipo de CSS}{figure.caption.31}{}}
\@writefile{lof}{\defcounter {refsection}{0}\relax }\@writefile{lof}{\contentsline {figure}{\numberline {2.6}{\ignorespaces Logotipo de JavaScript}}{43}{figure.caption.32}}
\newlabel{fig:logoJS}{{2.6}{43}{Logotipo de JavaScript}{figure.caption.32}{}}
\@writefile{toc}{\defcounter {refsection}{0}\relax }\@writefile{toc}{\contentsline {subsubsection}{Sistemas Operativos}{43}{section*.33}}
\newlabel{subsubsec:Sistemas Operativos}{{2.3.1}{43}{Sistemas Operativos}{section*.33}{}}
\@writefile{lof}{\defcounter {refsection}{0}\relax }\@writefile{lof}{\contentsline {figure}{\numberline {2.7}{\ignorespaces Logotipo de Windows}}{43}{figure.caption.34}}
\newlabel{fig:logoWin}{{2.7}{43}{Logotipo de Windows}{figure.caption.34}{}}
\@writefile{lof}{\defcounter {refsection}{0}\relax }\@writefile{lof}{\contentsline {figure}{\numberline {2.8}{\ignorespaces Logotipo de Raspbian}}{43}{figure.caption.35}}
\newlabel{fig:logoRaspbian}{{2.8}{43}{Logotipo de Raspbian}{figure.caption.35}{}}
\@writefile{lof}{\defcounter {refsection}{0}\relax }\@writefile{lof}{\contentsline {figure}{\numberline {2.9}{\ignorespaces Logotipo de Android}}{44}{figure.caption.36}}
\newlabel{fig:logoAndroid}{{2.9}{44}{Logotipo de Android}{figure.caption.36}{}}
\@writefile{toc}{\defcounter {refsection}{0}\relax }\@writefile{toc}{\contentsline {subsubsection}{Software de desarrollo}{44}{section*.37}}
\newlabel{subsubsec:Software de desarrollo}{{2.3.1}{44}{Software de desarrollo}{section*.37}{}}
\@writefile{lof}{\defcounter {refsection}{0}\relax }\@writefile{lof}{\contentsline {figure}{\numberline {2.10}{\ignorespaces Logotipo de Android Studio}}{44}{figure.caption.38}}
\newlabel{fig:logoAndroidStudio}{{2.10}{44}{Logotipo de Android Studio}{figure.caption.38}{}}
\@writefile{lof}{\defcounter {refsection}{0}\relax }\@writefile{lof}{\contentsline {figure}{\numberline {2.11}{\ignorespaces Logotipo de Sublime Text}}{44}{figure.caption.39}}
\newlabel{fig:logoSublime}{{2.11}{44}{Logotipo de Sublime Text}{figure.caption.39}{}}
\@writefile{toc}{\defcounter {refsection}{0}\relax }\@writefile{toc}{\contentsline {subsubsection}{Modelado y dise\IeC {\~n}o de software}{45}{section*.40}}
\newlabel{subsubsec:Modelado y dise\IeC {\~n}o de software}{{2.3.1}{45}{Modelado y diseño de software}{section*.40}{}}
\@writefile{lof}{\defcounter {refsection}{0}\relax }\@writefile{lof}{\contentsline {figure}{\numberline {2.12}{\ignorespaces Logotipo de Balsamiq Mockups}}{45}{figure.caption.41}}
\newlabel{fig:logoBalsamiq}{{2.12}{45}{Logotipo de Balsamiq Mockups}{figure.caption.41}{}}
\@writefile{lof}{\defcounter {refsection}{0}\relax }\@writefile{lof}{\contentsline {figure}{\numberline {2.13}{\ignorespaces Logotipo de Visual Paradigm}}{45}{figure.caption.42}}
\newlabel{fig:logoVisual}{{2.13}{45}{Logotipo de Visual Paradigm}{figure.caption.42}{}}
\@writefile{toc}{\defcounter {refsection}{0}\relax }\@writefile{toc}{\contentsline {subsubsection}{Gesti\IeC {\'o}n remota del servidor}{45}{section*.43}}
\newlabel{subsubsec:Gesti\IeC {\'o}n remota del servidor}{{2.3.1}{45}{Gestión remota del servidor}{section*.43}{}}
\@writefile{lof}{\defcounter {refsection}{0}\relax }\@writefile{lof}{\contentsline {figure}{\numberline {2.14}{\ignorespaces Logotipo de FileZilla}}{45}{figure.caption.44}}
\newlabel{fig:logoFileZilla}{{2.14}{45}{Logotipo de FileZilla}{figure.caption.44}{}}
\@writefile{lof}{\defcounter {refsection}{0}\relax }\@writefile{lof}{\contentsline {figure}{\numberline {2.15}{\ignorespaces Logotipo de PuTTY}}{46}{figure.caption.45}}
\newlabel{fig:logoPuTTY}{{2.15}{46}{Logotipo de PuTTY}{figure.caption.45}{}}
\@writefile{lof}{\defcounter {refsection}{0}\relax }\@writefile{lof}{\contentsline {figure}{\numberline {2.16}{\ignorespaces Logotipo de VNC Viewer}}{46}{figure.caption.46}}
\newlabel{fig:logoVNC}{{2.16}{46}{Logotipo de VNC Viewer}{figure.caption.46}{}}
\@writefile{toc}{\defcounter {refsection}{0}\relax }\@writefile{toc}{\contentsline {subsubsection}{Gesti\IeC {\'o}n del proyecto}{46}{section*.47}}
\newlabel{subsubsec:Gesti\IeC {\'o}n del proyecto}{{2.3.1}{46}{Gestión del proyecto}{section*.47}{}}
\@writefile{lof}{\defcounter {refsection}{0}\relax }\@writefile{lof}{\contentsline {figure}{\numberline {2.17}{\ignorespaces Logotipo de Trello}}{46}{figure.caption.48}}
\newlabel{fig:logoTrello}{{2.17}{46}{Logotipo de Trello}{figure.caption.48}{}}
\@writefile{lof}{\defcounter {refsection}{0}\relax }\@writefile{lof}{\contentsline {figure}{\numberline {2.18}{\ignorespaces Logotipo de Toggl}}{47}{figure.caption.49}}
\newlabel{fig:logoToggl}{{2.18}{47}{Logotipo de Toggl}{figure.caption.49}{}}
\@writefile{toc}{\defcounter {refsection}{0}\relax }\@writefile{toc}{\contentsline {subsubsection}{Control de versiones}{47}{section*.50}}
\newlabel{subsubsec:Control de versiones}{{2.3.1}{47}{Control de versiones}{section*.50}{}}
\@writefile{lof}{\defcounter {refsection}{0}\relax }\@writefile{lof}{\contentsline {figure}{\numberline {2.19}{\ignorespaces Logotipo de Bitbucket}}{47}{figure.caption.51}}
\newlabel{fig:logoBitbucket}{{2.19}{47}{Logotipo de Bitbucket}{figure.caption.51}{}}
\@writefile{toc}{\defcounter {refsection}{0}\relax }\@writefile{toc}{\contentsline {subsubsection}{Grafias}{47}{section*.52}}
\newlabel{subsubsec:Grafias}{{2.3.1}{47}{Grafias}{section*.52}{}}
\@writefile{lof}{\defcounter {refsection}{0}\relax }\@writefile{lof}{\contentsline {figure}{\numberline {2.20}{\ignorespaces Logotipo de Adobe Illustrator}}{47}{figure.caption.53}}
\newlabel{fig:logoIllustrator}{{2.20}{47}{Logotipo de Adobe Illustrator}{figure.caption.53}{}}
\@writefile{lof}{\defcounter {refsection}{0}\relax }\@writefile{lof}{\contentsline {figure}{\numberline {2.21}{\ignorespaces Logotipo de Adobe Photoshop}}{48}{figure.caption.54}}
\newlabel{fig:logoPhotoshop}{{2.21}{48}{Logotipo de Adobe Photoshop}{figure.caption.54}{}}
\@writefile{toc}{\defcounter {refsection}{0}\relax }\@writefile{toc}{\contentsline {subsubsection}{Documentaci\IeC {\'o}n}{48}{section*.55}}
\newlabel{subsubsec:Documentaci\IeC {\'o}n}{{2.3.1}{48}{Documentación}{section*.55}{}}
\@writefile{lof}{\defcounter {refsection}{0}\relax }\@writefile{lof}{\contentsline {figure}{\numberline {2.22}{\ignorespaces Logotipo de \LaTeX  {}}}{48}{figure.caption.56}}
\newlabel{fig:logoLatex}{{2.22}{48}{Logotipo de \LaTeX {}}{figure.caption.56}{}}
\@writefile{lof}{\defcounter {refsection}{0}\relax }\@writefile{lof}{\contentsline {figure}{\numberline {2.23}{\ignorespaces Logotipo de Texmaker}}{48}{figure.caption.57}}
\newlabel{fig:logoTexmaker}{{2.23}{48}{Logotipo de Texmaker}{figure.caption.57}{}}
\@writefile{lof}{\defcounter {refsection}{0}\relax }\@writefile{lof}{\contentsline {figure}{\numberline {2.24}{\ignorespaces Logotipo de JabRef}}{49}{figure.caption.58}}
\newlabel{fig:logoJabRef}{{2.24}{49}{Logotipo de JabRef}{figure.caption.58}{}}
\@writefile{toc}{\defcounter {refsection}{0}\relax }\@writefile{toc}{\contentsline {subsubsection}{Librer\IeC {\'\i }as externas de Android}{49}{section*.59}}
\newlabel{subsubsec:Librer\IeC {\'\i }as externas de Android}{{2.3.1}{49}{Librerías externas de Android}{section*.59}{}}
\@writefile{lof}{\defcounter {refsection}{0}\relax }\@writefile{lof}{\contentsline {figure}{\numberline {2.25}{\ignorespaces Logotipo de Espresso}}{49}{figure.caption.60}}
\newlabel{fig:logoEspresso}{{2.25}{49}{Logotipo de Espresso}{figure.caption.60}{}}
\@writefile{lof}{\defcounter {refsection}{0}\relax }\@writefile{lof}{\contentsline {figure}{\numberline {2.26}{\ignorespaces Logotipo de Volley}}{49}{figure.caption.61}}
\newlabel{fig:logoVolley}{{2.26}{49}{Logotipo de Volley}{figure.caption.61}{}}
\@writefile{lof}{\defcounter {refsection}{0}\relax }\@writefile{lof}{\contentsline {figure}{\numberline {2.27}{\ignorespaces Logotipo de Google Developers}}{50}{figure.caption.62}}
\newlabel{fig:logoGoogleDev}{{2.27}{50}{Logotipo de Google Developers}{figure.caption.62}{}}
\@writefile{lof}{\defcounter {refsection}{0}\relax }\@writefile{lof}{\contentsline {figure}{\numberline {2.28}{\ignorespaces Logotipo de Glide}}{50}{figure.caption.63}}
\newlabel{fig:logoGlide}{{2.28}{50}{Logotipo de Glide}{figure.caption.63}{}}
\@writefile{toc}{\defcounter {refsection}{0}\relax }\@writefile{toc}{\contentsline {subsubsection}{Utilidades}{51}{section*.64}}
\newlabel{subsubsec:Utilidades}{{2.3.1}{51}{Utilidades}{section*.64}{}}
\@writefile{lof}{\defcounter {refsection}{0}\relax }\@writefile{lof}{\contentsline {figure}{\numberline {2.29}{\ignorespaces Logotipo de REST Postman}}{51}{figure.caption.65}}
\newlabel{fig:logoRest}{{2.29}{51}{Logotipo de REST Postman}{figure.caption.65}{}}
\@writefile{toc}{\defcounter {refsection}{0}\relax }\@writefile{toc}{\contentsline {subsection}{\numberline {2.3.2}Medios Hardware}{51}{subsection.2.3.2}}
\newlabel{subsec:Medios Hardware}{{2.3.2}{51}{Medios Hardware}{subsection.2.3.2}{}}
\@writefile{lot}{\defcounter {refsection}{0}\relax }\@writefile{lot}{\contentsline {table}{\numberline {2.1}{\ignorespaces Caracter\IeC {\'\i }sticas principales MSI GE62 7RE Apache Pro\relax }}{51}{table.caption.67}}
\newlabel{tab:msi}{{2.1}{51}{Características principales MSI GE62 7RE Apache Pro\relax }{table.caption.67}{}}
\@writefile{lot}{\defcounter {refsection}{0}\relax }\@writefile{lot}{\contentsline {table}{\numberline {2.2}{\ignorespaces Caracter\IeC {\'\i }sticas principales Xiaomi Redmi Note 2\relax }}{51}{table.caption.69}}
\newlabel{tab:xiaomi}{{2.2}{51}{Características principales Xiaomi Redmi Note 2\relax }{table.caption.69}{}}
\@writefile{lot}{\defcounter {refsection}{0}\relax }\@writefile{lot}{\contentsline {table}{\numberline {2.3}{\ignorespaces Caracter\IeC {\'\i }sticas principales Raspberry Pi 2 B\relax }}{52}{table.caption.71}}
\newlabel{tab:rasp}{{2.3}{52}{Características principales Raspberry Pi 2 B\relax }{table.caption.71}{}}
\@setckpt{./caps/Objetivo}{
\setcounter{page}{53}
\setcounter{equation}{0}
\setcounter{enumi}{5}
\setcounter{enumii}{0}
\setcounter{enumiii}{0}
\setcounter{enumiv}{0}
\setcounter{footnote}{0}
\setcounter{mpfootnote}{0}
\setcounter{part}{0}
\setcounter{chapter}{2}
\setcounter{section}{3}
\setcounter{subsection}{2}
\setcounter{subsubsection}{0}
\setcounter{paragraph}{0}
\setcounter{subparagraph}{0}
\setcounter{figure}{29}
\setcounter{table}{3}
\setcounter{parentequation}{0}
\setcounter{Item}{23}
\setcounter{Hfootnote}{0}
\setcounter{bookmark@seq@number}{21}
\setcounter{nlinenum}{0}
\setcounter{float@type}{8}
\setcounter{subfigure}{0}
\setcounter{lofdepth}{1}
\setcounter{subtable}{0}
\setcounter{lotdepth}{1}
\setcounter{r@tfl@t}{0}
\setcounter{lstnumber}{1}
\setcounter{AlgoLine}{0}
\setcounter{algocfline}{0}
\setcounter{algocfproc}{0}
\setcounter{algocf}{0}
\setcounter{ContinuedFloat}{0}
\setcounter{tabx@nest}{0}
\setcounter{listtotal}{0}
\setcounter{listcount}{0}
\setcounter{liststart}{0}
\setcounter{liststop}{0}
\setcounter{citecount}{0}
\setcounter{citetotal}{0}
\setcounter{multicitecount}{0}
\setcounter{multicitetotal}{0}
\setcounter{instcount}{13}
\setcounter{maxnames}{3}
\setcounter{minnames}{1}
\setcounter{maxitems}{3}
\setcounter{minitems}{1}
\setcounter{citecounter}{0}
\setcounter{savedcitecounter}{0}
\setcounter{uniquelist}{0}
\setcounter{uniquename}{0}
\setcounter{refsection}{0}
\setcounter{refsegment}{0}
\setcounter{maxextratitle}{0}
\setcounter{maxextratitleyear}{0}
\setcounter{maxextradate}{0}
\setcounter{maxextraalpha}{5}
\setcounter{abbrvpenalty}{50}
\setcounter{highnamepenalty}{50}
\setcounter{lownamepenalty}{25}
\setcounter{maxparens}{3}
\setcounter{parenlevel}{0}
\setcounter{mincomprange}{10}
\setcounter{maxcomprange}{100000}
\setcounter{mincompwidth}{1}
\setcounter{afterword}{0}
\setcounter{savedafterword}{0}
\setcounter{annotator}{0}
\setcounter{savedannotator}{0}
\setcounter{author}{0}
\setcounter{savedauthor}{0}
\setcounter{bookauthor}{0}
\setcounter{savedbookauthor}{0}
\setcounter{commentator}{0}
\setcounter{savedcommentator}{0}
\setcounter{editor}{0}
\setcounter{savededitor}{0}
\setcounter{editora}{0}
\setcounter{savededitora}{0}
\setcounter{editorb}{0}
\setcounter{savededitorb}{0}
\setcounter{editorc}{0}
\setcounter{savededitorc}{0}
\setcounter{foreword}{0}
\setcounter{savedforeword}{0}
\setcounter{holder}{0}
\setcounter{savedholder}{0}
\setcounter{introduction}{0}
\setcounter{savedintroduction}{0}
\setcounter{namea}{0}
\setcounter{savednamea}{0}
\setcounter{nameb}{0}
\setcounter{savednameb}{0}
\setcounter{namec}{0}
\setcounter{savednamec}{0}
\setcounter{translator}{0}
\setcounter{savedtranslator}{0}
\setcounter{shortauthor}{0}
\setcounter{savedshortauthor}{0}
\setcounter{shorteditor}{0}
\setcounter{savedshorteditor}{0}
\setcounter{labelname}{0}
\setcounter{savedlabelname}{0}
\setcounter{institution}{0}
\setcounter{savedinstitution}{0}
\setcounter{lista}{0}
\setcounter{savedlista}{0}
\setcounter{listb}{0}
\setcounter{savedlistb}{0}
\setcounter{listc}{0}
\setcounter{savedlistc}{0}
\setcounter{listd}{0}
\setcounter{savedlistd}{0}
\setcounter{liste}{0}
\setcounter{savedliste}{0}
\setcounter{listf}{0}
\setcounter{savedlistf}{0}
\setcounter{location}{0}
\setcounter{savedlocation}{0}
\setcounter{organization}{0}
\setcounter{savedorganization}{0}
\setcounter{origlocation}{0}
\setcounter{savedoriglocation}{0}
\setcounter{origpublisher}{0}
\setcounter{savedorigpublisher}{0}
\setcounter{publisher}{0}
\setcounter{savedpublisher}{0}
\setcounter{language}{0}
\setcounter{savedlanguage}{0}
\setcounter{origlanguage}{0}
\setcounter{savedoriglanguage}{0}
\setcounter{pageref}{0}
\setcounter{savedpageref}{0}
\setcounter{textcitecount}{0}
\setcounter{textcitetotal}{0}
\setcounter{textcitemaxnames}{0}
\setcounter{biburlnumpenalty}{0}
\setcounter{biburlucpenalty}{0}
\setcounter{biburllcpenalty}{0}
\setcounter{smartand}{1}
\setcounter{bbx:relatedcount}{0}
\setcounter{bbx:relatedtotal}{0}
\setcounter{section@level}{2}
\setcounter{lstlisting}{0}
\setcounter{totpages}{30}
}
