\relax 
\providecommand\hyper@newdestlabel[2]{}
\@writefile{toc}{\defcounter {refsection}{0}\relax }\@writefile{toc}{\contentsline {chapter}{\numberline {5}Resultados}{83}{chapter.5}}
\@writefile{lof}{\defcounter {refsection}{0}\relax }\@writefile{lof}{\addvspace {10\p@ }}
\@writefile{lot}{\defcounter {refsection}{0}\relax }\@writefile{lot}{\addvspace {10\p@ }}
\@writefile{loa}{\defcounter {refsection}{0}\relax }\@writefile{loa}{\addvspace {10\p@ }}
\newlabel{cap:Resultados}{{5}{83}{Resultados}{chapter.5}{}}
\@writefile{toc}{\defcounter {refsection}{0}\relax }\@writefile{toc}{\contentsline {section}{\numberline {5.1}Iteraci\IeC {\'o}n 0}{83}{section.5.1}}
\newlabel{sec:Iteraci\IeC {\'o}n 0}{{5.1}{83}{Iteración 0}{section.5.1}{}}
\@writefile{toc}{\defcounter {refsection}{0}\relax }\@writefile{toc}{\contentsline {subsection}{\numberline {5.1.1}Distribuci\IeC {\'o}n del proyecto}{83}{subsection.5.1.1}}
\newlabel{Distribuci\IeC {\'o}n del proyecto}{{5.1.1}{83}{Distribución del proyecto}{subsection.5.1.1}{}}
\@writefile{toc}{\defcounter {refsection}{0}\relax }\@writefile{toc}{\contentsline {subsection}{\numberline {5.1.2}Historias de usuario}{84}{subsection.5.1.2}}
\newlabel{Historias de usuario}{{5.1.2}{84}{Historias de usuario}{subsection.5.1.2}{}}
\@writefile{lot}{\defcounter {refsection}{0}\relax }\@writefile{lot}{\contentsline {table}{\numberline {5.1}{\ignorespaces Historia de Usuario 1: Configuraci\IeC {\'o}n del servidor local\relax }}{85}{table.caption.102}}
\newlabel{tab:hdu1}{{5.1}{85}{Historia de Usuario 1: Configuración del servidor local\relax }{table.caption.102}{}}
\@writefile{lot}{\defcounter {refsection}{0}\relax }\@writefile{lot}{\contentsline {table}{\numberline {5.2}{\ignorespaces Historia de Usuario 2: Configuraci\IeC {\'o}n del entorno de desarrollo\relax }}{85}{table.caption.103}}
\newlabel{tab:hdu2}{{5.2}{85}{Historia de Usuario 2: Configuración del entorno de desarrollo\relax }{table.caption.103}{}}
\@writefile{lot}{\defcounter {refsection}{0}\relax }\@writefile{lot}{\contentsline {table}{\numberline {5.3}{\ignorespaces Historia de Usuario 3: Creaci\IeC {\'o}n y configuraci\IeC {\'o}n de la APIRest\relax }}{86}{table.caption.104}}
\newlabel{tab:hdu3}{{5.3}{86}{Historia de Usuario 3: Creación y configuración de la APIRest\relax }{table.caption.104}{}}
\@writefile{lot}{\defcounter {refsection}{0}\relax }\@writefile{lot}{\contentsline {table}{\numberline {5.4}{\ignorespaces Historia de Usuario 4: Creaci\IeC {\'o}n y configuraci\IeC {\'o}n de la APIRest\relax }}{86}{table.caption.105}}
\newlabel{tab:hdu4}{{5.4}{86}{Historia de Usuario 4: Creación y configuración de la APIRest\relax }{table.caption.105}{}}
\@writefile{lot}{\defcounter {refsection}{0}\relax }\@writefile{lot}{\contentsline {table}{\numberline {5.5}{\ignorespaces Historia de Usuario 5: Acceso a la aplicaci\IeC {\'o}n Android\relax }}{87}{table.caption.106}}
\newlabel{tab:hdu5}{{5.5}{87}{Historia de Usuario 5: Acceso a la aplicación Android\relax }{table.caption.106}{}}
\@writefile{lot}{\defcounter {refsection}{0}\relax }\@writefile{lot}{\contentsline {table}{\numberline {5.6}{\ignorespaces Historia de Usuario 6: Navegaci\IeC {\'o}n por la aplicaci\IeC {\'o}n Android\relax }}{87}{table.caption.107}}
\newlabel{tab:hdu6}{{5.6}{87}{Historia de Usuario 6: Navegación por la aplicación Android\relax }{table.caption.107}{}}
\@writefile{lot}{\defcounter {refsection}{0}\relax }\@writefile{lot}{\contentsline {table}{\numberline {5.7}{\ignorespaces Historia de Usuario 7: Creaci\IeC {\'o}n de nuevas citas\relax }}{88}{table.caption.108}}
\newlabel{tab:hdu7}{{5.7}{88}{Historia de Usuario 7: Creación de nuevas citas\relax }{table.caption.108}{}}
\@writefile{lot}{\defcounter {refsection}{0}\relax }\@writefile{lot}{\contentsline {table}{\numberline {5.8}{\ignorespaces Historia de Usuario 8: Visualizaci\IeC {\'o}n de las citas\relax }}{88}{table.caption.109}}
\newlabel{tab:hdu8}{{5.8}{88}{Historia de Usuario 8: Visualización de las citas\relax }{table.caption.109}{}}
\@writefile{lot}{\defcounter {refsection}{0}\relax }\@writefile{lot}{\contentsline {table}{\numberline {5.9}{\ignorespaces Historia de Usuario 9: Gesti\IeC {\'o}n de las citas\relax }}{89}{table.caption.110}}
\newlabel{tab:hdu9}{{5.9}{89}{Historia de Usuario 9: Gestión de las citas\relax }{table.caption.110}{}}
\@writefile{lot}{\defcounter {refsection}{0}\relax }\@writefile{lot}{\contentsline {table}{\numberline {5.10}{\ignorespaces Historia de Usuario 10: Visualizaci\IeC {\'o}n de las citas del servidor remoto\relax }}{89}{table.caption.111}}
\newlabel{tab:hdu10}{{5.10}{89}{Historia de Usuario 10: Visualización de las citas del servidor remoto\relax }{table.caption.111}{}}
\@writefile{lot}{\defcounter {refsection}{0}\relax }\@writefile{lot}{\contentsline {table}{\numberline {5.11}{\ignorespaces Historia de Usuario 11: Visualizaci\IeC {\'o}n de los parajes\relax }}{90}{table.caption.112}}
\newlabel{tab:hdu11}{{5.11}{90}{Historia de Usuario 11: Visualización de los parajes\relax }{table.caption.112}{}}
\@writefile{lot}{\defcounter {refsection}{0}\relax }\@writefile{lot}{\contentsline {table}{\numberline {5.12}{\ignorespaces Historia de Usuario 12: Gesti\IeC {\'o}n del perfil de usuario\relax }}{90}{table.caption.113}}
\newlabel{tab:hdu12}{{5.12}{90}{Historia de Usuario 12: Gestión del perfil de usuario\relax }{table.caption.113}{}}
\@writefile{lot}{\defcounter {refsection}{0}\relax }\@writefile{lot}{\contentsline {table}{\numberline {5.13}{\ignorespaces Historia de Usuario 13: Creaci\IeC {\'o}n de la p\IeC {\'a}gina web\relax }}{91}{table.caption.114}}
\newlabel{tab:hdu13}{{5.13}{91}{Historia de Usuario 13: Creación de la página web\relax }{table.caption.114}{}}
\@writefile{toc}{\defcounter {refsection}{0}\relax }\@writefile{toc}{\contentsline {subsection}{\numberline {5.1.3}Plan de iteraciones}{92}{subsection.5.1.3}}
\newlabel{Plan de iteraciones}{{5.1.3}{92}{Plan de iteraciones}{subsection.5.1.3}{}}
\@writefile{lot}{\defcounter {refsection}{0}\relax }\@writefile{lot}{\contentsline {table}{\numberline {5.14}{\ignorespaces Historia de Usuario 13: Creaci\IeC {\'o}n de la p\IeC {\'a}gina web\relax }}{92}{table.caption.115}}
\newlabel{tab:planIteraciones}{{5.14}{92}{Historia de Usuario 13: Creación de la página web\relax }{table.caption.115}{}}
\@writefile{toc}{\defcounter {refsection}{0}\relax }\@writefile{toc}{\contentsline {subsection}{\numberline {5.1.4}Alcance del proyecto}{92}{subsection.5.1.4}}
\newlabel{Alcance del proyecto}{{5.1.4}{92}{Alcance del proyecto}{subsection.5.1.4}{}}
\@writefile{toc}{\defcounter {refsection}{0}\relax }\@writefile{toc}{\contentsline {subsection}{\numberline {5.1.5}Gesti\IeC {\'o}n de procesos}{93}{subsection.5.1.5}}
\newlabel{Gesti\IeC {\'o}n de procesos}{{5.1.5}{93}{Gestión de procesos}{subsection.5.1.5}{}}
\@writefile{lof}{\defcounter {refsection}{0}\relax }\@writefile{lof}{\contentsline {figure}{\numberline {5.1}{\ignorespaces Ejemplo de la herramienta Trello para la gesti\IeC {\'o}n de los procesos}}{93}{figure.caption.116}}
\newlabel{fig:trl}{{5.1}{93}{Ejemplo de la herramienta Trello para la gestión de los procesos}{figure.caption.116}{}}
\@writefile{toc}{\defcounter {refsection}{0}\relax }\@writefile{toc}{\contentsline {subsection}{\numberline {5.1.6}Gesti\IeC {\'o}n de recursos}{93}{subsection.5.1.6}}
\newlabel{Gesti\IeC {\'o}n de recursos}{{5.1.6}{93}{Gestión de recursos}{subsection.5.1.6}{}}
\@writefile{toc}{\defcounter {refsection}{0}\relax }\@writefile{toc}{\contentsline {subsection}{\numberline {5.1.7}Gesti\IeC {\'o}n de riesgos}{93}{subsection.5.1.7}}
\newlabel{Gesti\IeC {\'o}n de riesgos}{{5.1.7}{93}{Gestión de riesgos}{subsection.5.1.7}{}}
\@writefile{lot}{\defcounter {refsection}{0}\relax }\@writefile{lot}{\contentsline {table}{\numberline {5.15}{\ignorespaces An\IeC {\'a}lisis de Riesgos\relax }}{94}{table.caption.117}}
\newlabel{tab:riesgos}{{5.15}{94}{Análisis de Riesgos\relax }{table.caption.117}{}}
\@writefile{lot}{\defcounter {refsection}{0}\relax }\@writefile{lot}{\contentsline {table}{\numberline {5.16}{\ignorespaces An\IeC {\'a}lisis de Riesgos (cont)\relax }}{95}{table.caption.118}}
\newlabel{tab:riesgos}{{5.16}{95}{Análisis de Riesgos (cont)\relax }{table.caption.118}{}}
\@writefile{lot}{\defcounter {refsection}{0}\relax }\@writefile{lot}{\contentsline {table}{\numberline {5.17}{\ignorespaces An\IeC {\'a}lisis de Riesgos (cont)\relax }}{96}{table.caption.119}}
\newlabel{tab:riesgos}{{5.17}{96}{Análisis de Riesgos (cont)\relax }{table.caption.119}{}}
\@writefile{lot}{\defcounter {refsection}{0}\relax }\@writefile{lot}{\contentsline {table}{\numberline {5.18}{\ignorespaces An\IeC {\'a}lisis de Riesgos (cont)\relax }}{97}{table.caption.120}}
\newlabel{tab:riesgos}{{5.18}{97}{Análisis de Riesgos (cont)\relax }{table.caption.120}{}}
\@writefile{toc}{\defcounter {refsection}{0}\relax }\@writefile{toc}{\contentsline {subsection}{\numberline {5.1.8}Gesti\IeC {\'o}n de costes}{97}{subsection.5.1.8}}
\newlabel{Gesti\IeC {\'o}n de costes}{{5.1.8}{97}{Gestión de costes}{subsection.5.1.8}{}}
\@writefile{lot}{\defcounter {refsection}{0}\relax }\@writefile{lot}{\contentsline {table}{\numberline {5.19}{\ignorespaces An\IeC {\'a}lisis de Costes\relax }}{97}{table.caption.121}}
\newlabel{tab:riesgos}{{5.19}{97}{Análisis de Costes\relax }{table.caption.121}{}}
\@writefile{toc}{\defcounter {refsection}{0}\relax }\@writefile{toc}{\contentsline {subsection}{\numberline {5.1.9}Prototipos del sistema}{98}{subsection.5.1.9}}
\newlabel{Prototipos del sistema}{{5.1.9}{98}{Prototipos del sistema}{subsection.5.1.9}{}}
\@writefile{lof}{\defcounter {refsection}{0}\relax }\@writefile{lof}{\contentsline {figure}{\numberline {5.2}{\ignorespaces Boceto inicial de la aplicaci\IeC {\'o}n m\IeC {\'o}vil}}{98}{figure.caption.122}}
\@writefile{lof}{\defcounter {refsection}{0}\relax }\@writefile{lof}{\contentsline {figure}{\numberline {5.3}{\ignorespaces Boceto inicial de la p\IeC {\'a}gina web}}{98}{figure.caption.123}}
\newlabel{fig:logo1}{{5.4(a)}{99}{Subfigure 5 5.4(a)}{subfigure.5.4.1}{}}
\newlabel{sub@fig:logo1}{{(a)}{99}{Subfigure 5 5.4(a)\relax }{subfigure.5.4.1}{}}
\newlabel{fig:logo2}{{5.4(b)}{99}{Subfigure 5 5.4(b)}{subfigure.5.4.2}{}}
\newlabel{sub@fig:logo2}{{(b)}{99}{Subfigure 5 5.4(b)\relax }{subfigure.5.4.2}{}}
\newlabel{fig:logo3}{{5.4(c)}{99}{Subfigure 5 5.4(c)}{subfigure.5.4.3}{}}
\newlabel{sub@fig:logo3}{{(c)}{99}{Subfigure 5 5.4(c)\relax }{subfigure.5.4.3}{}}
\newlabel{fig:logo4}{{5.4(d)}{99}{Subfigure 5 5.4(d)}{subfigure.5.4.4}{}}
\newlabel{sub@fig:logo4}{{(d)}{99}{Subfigure 5 5.4(d)\relax }{subfigure.5.4.4}{}}
\@writefile{lof}{\defcounter {refsection}{0}\relax }\@writefile{lof}{\contentsline {figure}{\numberline {5.4}{\ignorespaces Prototipos logotipo del sistema}}{99}{figure.caption.124}}
\newlabel{fig:protoslogo}{{5.4}{99}{Prototipos logotipo del sistema}{figure.caption.124}{}}
\@writefile{lof}{\defcounter {refsection}{0}\relax }\@writefile{lof}{\contentsline {figure}{\numberline {5.5}{\ignorespaces Logotipo elegido}}{99}{figure.caption.125}}
\newlabel{fig:logovizz}{{5.5}{99}{Logotipo elegido}{figure.caption.125}{}}
\@writefile{toc}{\defcounter {refsection}{0}\relax }\@writefile{toc}{\contentsline {section}{\numberline {5.2}Iteraci\IeC {\'o}n 1}{100}{section.5.2}}
\newlabel{sec:Iteraci\IeC {\'o}n 1}{{5.2}{100}{Iteración 1}{section.5.2}{}}
\@writefile{toc}{\defcounter {refsection}{0}\relax }\@writefile{toc}{\contentsline {subsection}{\numberline {5.2.1}Historia de Usuario 1: Configuraci\IeC {\'o}n del servidor remoto}{100}{subsection.5.2.1}}
\newlabel{Historia de Usuario 1: Configuraci\IeC {\'o}n del servidor remoto}{{5.2.1}{100}{Historia de Usuario 1: Configuración del servidor remoto}{subsection.5.2.1}{}}
\@writefile{toc}{\defcounter {refsection}{0}\relax }\@writefile{toc}{\contentsline {subsection}{\numberline {5.2.2}Historia de Usuario 2: Configuraci\IeC {\'o}n del entorno de desarrollo}{100}{subsection.5.2.2}}
\newlabel{Historia de Usuario 2: Configuraci\IeC {\'o}n del entorno de desarrollo}{{5.2.2}{100}{Historia de Usuario 2: Configuración del entorno de desarrollo}{subsection.5.2.2}{}}
\@writefile{toc}{\defcounter {refsection}{0}\relax }\@writefile{toc}{\contentsline {subsection}{\numberline {5.2.3}Historia de Usuario 3: Creaci\IeC {\'o}n de las bases de datos}{100}{subsection.5.2.3}}
\newlabel{Historia de Historia de Usuario 3: Creaci\IeC {\'o}n de las bases de datos}{{5.2.3}{100}{Historia de Usuario 3: Creación de las bases de datos}{subsection.5.2.3}{}}
\@writefile{toc}{\defcounter {refsection}{0}\relax }\@writefile{toc}{\contentsline {subsubsection}{Base de datos local}{100}{section*.126}}
\@writefile{lof}{\defcounter {refsection}{0}\relax }\@writefile{lof}{\contentsline {figure}{\numberline {5.6}{\ignorespaces Esquema de la Base de datos local}}{101}{figure.caption.127}}
\newlabel{lst:java}{{5.1}{101}{Ejemplo de la creación de la Base de datos local}{lstlisting.5.1}{}}
\@writefile{lol}{\defcounter {refsection}{0}\relax }\@writefile{lol}{\contentsline {lstlisting}{\numberline {5.1}Ejemplo de la creaci\IeC {\'o}n de la Base de datos local}{101}{lstlisting.5.1}}
\@writefile{toc}{\defcounter {refsection}{0}\relax }\@writefile{toc}{\contentsline {subsubsection}{Base de datos remota}{102}{section*.129}}
\@writefile{lof}{\defcounter {refsection}{0}\relax }\@writefile{lof}{\contentsline {figure}{\numberline {5.7}{\ignorespaces Esquema de la Base de datos remota}}{102}{figure.caption.130}}
\newlabel{lst:SQL}{{5.2}{102}{Ejemplo de la creación de la Base de datos remota}{lstlisting.5.2}{}}
\@writefile{lol}{\defcounter {refsection}{0}\relax }\@writefile{lol}{\contentsline {lstlisting}{\numberline {5.2}Ejemplo de la creaci\IeC {\'o}n de la Base de datos remota}{102}{lstlisting.5.2}}
\@writefile{toc}{\defcounter {refsection}{0}\relax }\@writefile{toc}{\contentsline {subsection}{\numberline {5.2.4}Historia de Historia de Usuario 4: Creaci\IeC {\'o}n y configuraci\IeC {\'o}n de la APIRest}{103}{subsection.5.2.4}}
\newlabel{Historia de Historia de Usuario 4: Creaci\IeC {\'o}n y configuraci\IeC {\'o}n de la APIRest}{{5.2.4}{103}{Historia de Historia de Usuario 4: Creación y configuración de la APIRest}{subsection.5.2.4}{}}
\@writefile{toc}{\defcounter {refsection}{0}\relax }\@writefile{toc}{\contentsline {section}{\numberline {5.3}Iteraci\IeC {\'o}n 2}{104}{section.5.3}}
\newlabel{sec:Iteraci\IeC {\'o}n 2}{{5.3}{104}{Iteración 2}{section.5.3}{}}
\@writefile{toc}{\defcounter {refsection}{0}\relax }\@writefile{toc}{\contentsline {subsection}{\numberline {5.3.1}Historia de Usuario 5: Acceso a la aplicaci\IeC {\'o}n Android}{104}{subsection.5.3.1}}
\newlabel{Historia de Usuario 5: Acceso a la aplicaci\IeC {\'o}n Android}{{5.3.1}{104}{Historia de Usuario 5: Acceso a la aplicación Android}{subsection.5.3.1}{}}
\@writefile{toc}{\defcounter {refsection}{0}\relax }\@writefile{toc}{\contentsline {subsubsection}{An\IeC {\'a}lisis}{104}{section*.132}}
\@writefile{lof}{\defcounter {refsection}{0}\relax }\@writefile{lof}{\contentsline {figure}{\numberline {5.8}{\ignorespaces Diagrama de secuencia de la Historia de Usuario 5}}{104}{figure.caption.133}}
\@writefile{toc}{\defcounter {refsection}{0}\relax }\@writefile{toc}{\contentsline {subsubsection}{Dise\IeC {\~n}o}{104}{section*.134}}
\@writefile{lof}{\defcounter {refsection}{0}\relax }\@writefile{lof}{\contentsline {figure}{\numberline {5.9}{\ignorespaces Pantallas de acceso a la aplicaci\IeC {\'o}n m\IeC {\'o}vil}}{105}{figure.caption.135}}
\@writefile{lof}{\defcounter {refsection}{0}\relax }\@writefile{lof}{\contentsline {figure}{\numberline {5.10}{\ignorespaces Pantalla de formulario de registro}}{105}{figure.caption.136}}
\@writefile{lof}{\defcounter {refsection}{0}\relax }\@writefile{lof}{\contentsline {figure}{\numberline {5.11}{\ignorespaces Pantalla de t\IeC {\'e}rminos y condiciones}}{106}{figure.caption.137}}
\@writefile{toc}{\defcounter {refsection}{0}\relax }\@writefile{toc}{\contentsline {subsubsection}{Implementaci\IeC {\'o}n}{106}{section*.138}}
\newlabel{lst:java}{{5.3}{106}{Ejemplo de implementación de la comprobación del usuario}{lstlisting.5.3}{}}
\@writefile{lol}{\defcounter {refsection}{0}\relax }\@writefile{lol}{\contentsline {lstlisting}{\numberline {5.3}Ejemplo de implementaci\IeC {\'o}n de la comprobaci\IeC {\'o}n del usuario}{106}{lstlisting.5.3}}
\newlabel{lst:java}{{5.4}{107}{Ejemplo de implementación del registro del usuario}{lstlisting.5.4}{}}
\@writefile{lol}{\defcounter {refsection}{0}\relax }\@writefile{lol}{\contentsline {lstlisting}{\numberline {5.4}Ejemplo de implementaci\IeC {\'o}n del registro del usuario}{107}{lstlisting.5.4}}
\newlabel{lst:java}{{5.5}{107}{Ejemplo de implementación del registro del usuario mediante Volley}{lstlisting.5.5}{}}
\@writefile{lol}{\defcounter {refsection}{0}\relax }\@writefile{lol}{\contentsline {lstlisting}{\numberline {5.5}Ejemplo de implementaci\IeC {\'o}n del registro del usuario mediante Volley}{107}{lstlisting.5.5}}
\@writefile{toc}{\defcounter {refsection}{0}\relax }\@writefile{toc}{\contentsline {subsubsection}{Pruebas}{108}{section*.142}}
\@writefile{toc}{\defcounter {refsection}{0}\relax }\@writefile{toc}{\contentsline {subsection}{\numberline {5.3.2}Versi\IeC {\'o}n obtenida}{108}{subsection.5.3.2}}
\newlabel{Versi\IeC {\'o}n obtenida}{{5.3.2}{108}{Versión obtenida}{subsection.5.3.2}{}}
\@writefile{toc}{\defcounter {refsection}{0}\relax }\@writefile{toc}{\contentsline {section}{\numberline {5.4}Iteraci\IeC {\'o}n 3}{109}{section.5.4}}
\newlabel{sec:Iteraci\IeC {\'o}n 3}{{5.4}{109}{Iteración 3}{section.5.4}{}}
\@writefile{toc}{\defcounter {refsection}{0}\relax }\@writefile{toc}{\contentsline {subsection}{\numberline {5.4.1}Historia de Usuario 6: Navegaci\IeC {\'o}n por la aplicaci\IeC {\'o}n Android}{109}{subsection.5.4.1}}
\newlabel{Historia de Usuario 6: Navegaci\IeC {\'o}n por la aplicaci\IeC {\'o}n Android}{{5.4.1}{109}{Historia de Usuario 6: Navegación por la aplicación Android}{subsection.5.4.1}{}}
\@writefile{toc}{\defcounter {refsection}{0}\relax }\@writefile{toc}{\contentsline {subsubsection}{An\IeC {\'a}lisis}{109}{section*.143}}
\@writefile{lof}{\defcounter {refsection}{0}\relax }\@writefile{lof}{\contentsline {figure}{\numberline {5.12}{\ignorespaces Diagrama de secuencia de la Historia de Usuario 6}}{109}{figure.caption.144}}
\@writefile{toc}{\defcounter {refsection}{0}\relax }\@writefile{toc}{\contentsline {subsubsection}{Dise\IeC {\~n}o}{109}{section*.145}}
\@writefile{lof}{\defcounter {refsection}{0}\relax }\@writefile{lof}{\contentsline {figure}{\numberline {5.13}{\ignorespaces Elementos de navegaci\IeC {\'o}n de la aplicaci\IeC {\'o}n m\IeC {\'o}vil}}{110}{figure.caption.146}}
\@writefile{toc}{\defcounter {refsection}{0}\relax }\@writefile{toc}{\contentsline {subsubsection}{Implementaci\IeC {\'o}n}{110}{section*.147}}
\newlabel{lst:java}{{5.6}{110}{Ejemplo de implementación del menú}{lstlisting.5.6}{}}
\@writefile{lol}{\defcounter {refsection}{0}\relax }\@writefile{lol}{\contentsline {lstlisting}{\numberline {5.6}Ejemplo de implementaci\IeC {\'o}n del men\IeC {\'u}}{110}{lstlisting.5.6}}
\newlabel{lst:java}{{5.7}{110}{Ejemplo de la implementación del menú lateral}{lstlisting.5.7}{}}
\@writefile{lol}{\defcounter {refsection}{0}\relax }\@writefile{lol}{\contentsline {lstlisting}{\numberline {5.7}Ejemplo de la implementaci\IeC {\'o}n del men\IeC {\'u} lateral}{110}{lstlisting.5.7}}
\@writefile{toc}{\defcounter {refsection}{0}\relax }\@writefile{toc}{\contentsline {subsubsection}{Pruebas}{111}{section*.150}}
\@writefile{lof}{\defcounter {refsection}{0}\relax }\@writefile{lof}{\contentsline {figure}{\numberline {5.14}{\ignorespaces Prueba de navegaci\IeC {\'o}n a Mis Citas}}{111}{figure.caption.151}}
\@writefile{toc}{\defcounter {refsection}{0}\relax }\@writefile{toc}{\contentsline {subsection}{\numberline {5.4.2}Versi\IeC {\'o}n obtenida}{111}{subsection.5.4.2}}
\newlabel{Versi\IeC {\'o}n obtenida}{{5.4.2}{111}{Versión obtenida}{subsection.5.4.2}{}}
\@writefile{toc}{\defcounter {refsection}{0}\relax }\@writefile{toc}{\contentsline {section}{\numberline {5.5}Iteraci\IeC {\'o}n 4}{112}{section.5.5}}
\newlabel{sec:Iteraci\IeC {\'o}n 4}{{5.5}{112}{Iteración 4}{section.5.5}{}}
\@writefile{toc}{\defcounter {refsection}{0}\relax }\@writefile{toc}{\contentsline {subsection}{\numberline {5.5.1}Historia de Usuario 7: Creaci\IeC {\'o}n de nuevas citas}{112}{subsection.5.5.1}}
\newlabel{Historia de Usuario 7: Creaci\IeC {\'o}n de nuevas citas}{{5.5.1}{112}{Historia de Usuario 7: Creación de nuevas citas}{subsection.5.5.1}{}}
\@writefile{toc}{\defcounter {refsection}{0}\relax }\@writefile{toc}{\contentsline {subsubsection}{An\IeC {\'a}lisis}{112}{section*.152}}
\@writefile{lof}{\defcounter {refsection}{0}\relax }\@writefile{lof}{\contentsline {figure}{\numberline {5.15}{\ignorespaces Diagrama de secuencia de la Historia de Usuario 7}}{112}{figure.caption.153}}
\@writefile{toc}{\defcounter {refsection}{0}\relax }\@writefile{toc}{\contentsline {subsubsection}{Dise\IeC {\~n}o}{112}{section*.154}}
\@writefile{lof}{\defcounter {refsection}{0}\relax }\@writefile{lof}{\contentsline {figure}{\numberline {5.16}{\ignorespaces Pantalla de listar citas}}{113}{figure.caption.155}}
\@writefile{lof}{\defcounter {refsection}{0}\relax }\@writefile{lof}{\contentsline {figure}{\numberline {5.17}{\ignorespaces Pantalla de formulario de creaci\IeC {\'o}n de citas}}{113}{figure.caption.156}}
\@writefile{lof}{\defcounter {refsection}{0}\relax }\@writefile{lof}{\contentsline {figure}{\numberline {5.18}{\ignorespaces Elemento de selecci\IeC {\'o}n de imagen}}{114}{figure.caption.157}}
\@writefile{lof}{\defcounter {refsection}{0}\relax }\@writefile{lof}{\contentsline {figure}{\numberline {5.19}{\ignorespaces Elemento de selecci\IeC {\'o}n de fecha}}{114}{figure.caption.158}}
\@writefile{lof}{\defcounter {refsection}{0}\relax }\@writefile{lof}{\contentsline {figure}{\numberline {5.20}{\ignorespaces Elemento de selecci\IeC {\'o}n de ubicaci\IeC {\'o}n}}{115}{figure.caption.159}}
\@writefile{lof}{\defcounter {refsection}{0}\relax }\@writefile{lof}{\contentsline {figure}{\numberline {5.21}{\ignorespaces Elemento de selecci\IeC {\'o}n de municipio}}{115}{figure.caption.160}}
\@writefile{lof}{\defcounter {refsection}{0}\relax }\@writefile{lof}{\contentsline {figure}{\numberline {5.22}{\ignorespaces Estados de las citas}}{116}{figure.caption.161}}
\@writefile{toc}{\defcounter {refsection}{0}\relax }\@writefile{toc}{\contentsline {subsubsection}{Implementaci\IeC {\'o}n}{116}{section*.162}}
\newlabel{lst:java}{{5.8}{117}{Ejemplo de la implementación del autocompletar de las especies}{lstlisting.5.8}{}}
\@writefile{lol}{\defcounter {refsection}{0}\relax }\@writefile{lol}{\contentsline {lstlisting}{\numberline {5.8}Ejemplo de la implementaci\IeC {\'o}n del autocompletar de las especies}{117}{lstlisting.5.8}}
\newlabel{lst:java}{{5.9}{118}{Ejemplo de la implementación de la sincronización mediante el BroadcastReceiver}{lstlisting.5.9}{}}
\@writefile{lol}{\defcounter {refsection}{0}\relax }\@writefile{lol}{\contentsline {lstlisting}{\numberline {5.9}Ejemplo de la implementaci\IeC {\'o}n de la sincronizaci\IeC {\'o}n mediante el BroadcastReceiver}{118}{lstlisting.5.9}}
\newlabel{lst:java}{{5.10}{118}{Ejemplo de la implementación del guardado de las nuevas citas}{lstlisting.5.10}{}}
\@writefile{lol}{\defcounter {refsection}{0}\relax }\@writefile{lol}{\contentsline {lstlisting}{\numberline {5.10}Ejemplo de la implementaci\IeC {\'o}n del guardado de las nuevas citas}{118}{lstlisting.5.10}}
\@writefile{toc}{\defcounter {refsection}{0}\relax }\@writefile{toc}{\contentsline {subsubsection}{Pruebas}{118}{section*.166}}
\@writefile{lof}{\defcounter {refsection}{0}\relax }\@writefile{lof}{\contentsline {figure}{\numberline {5.23}{\ignorespaces Prueba de crear nueva cita}}{119}{figure.caption.167}}
\@writefile{toc}{\defcounter {refsection}{0}\relax }\@writefile{toc}{\contentsline {subsection}{\numberline {5.5.2}Versi\IeC {\'o}n obtenida}{119}{subsection.5.5.2}}
\newlabel{Versi\IeC {\'o}n obtenida}{{5.5.2}{119}{Versión obtenida}{subsection.5.5.2}{}}
\@writefile{toc}{\defcounter {refsection}{0}\relax }\@writefile{toc}{\contentsline {section}{\numberline {5.6}Iteraci\IeC {\'o}n 5}{120}{section.5.6}}
\newlabel{sec:Iteraci\IeC {\'o}n 5}{{5.6}{120}{Iteración 5}{section.5.6}{}}
\@writefile{toc}{\defcounter {refsection}{0}\relax }\@writefile{toc}{\contentsline {subsection}{\numberline {5.6.1}Historia de Usuario 8: Visualizaci\IeC {\'o}n de las citas}{120}{subsection.5.6.1}}
\newlabel{Historia de Usuario 8: Visualizaci\IeC {\'o}n de las citas}{{5.6.1}{120}{Historia de Usuario 8: Visualización de las citas}{subsection.5.6.1}{}}
\@writefile{toc}{\defcounter {refsection}{0}\relax }\@writefile{toc}{\contentsline {subsubsection}{An\IeC {\'a}lisis}{120}{section*.168}}
\@writefile{lof}{\defcounter {refsection}{0}\relax }\@writefile{lof}{\contentsline {figure}{\numberline {5.24}{\ignorespaces Diagrama de secuencia de la Historia de Usuario 8}}{120}{figure.caption.169}}
\@writefile{toc}{\defcounter {refsection}{0}\relax }\@writefile{toc}{\contentsline {subsubsection}{Dise\IeC {\~n}o}{120}{section*.170}}
\@writefile{lof}{\defcounter {refsection}{0}\relax }\@writefile{lof}{\contentsline {figure}{\numberline {5.25}{\ignorespaces Pantallas de la visualizaci\IeC {\'o}n de las citas}}{121}{figure.caption.171}}
\@writefile{toc}{\defcounter {refsection}{0}\relax }\@writefile{toc}{\contentsline {subsubsection}{Implementaci\IeC {\'o}n}{121}{section*.172}}
\newlabel{lst:java}{{5.11}{121}{Ejemplo de la implementación de la actualización de la lista personalizada}{lstlisting.5.11}{}}
\@writefile{lol}{\defcounter {refsection}{0}\relax }\@writefile{lol}{\contentsline {lstlisting}{\numberline {5.11}Ejemplo de la implementaci\IeC {\'o}n de la actualizaci\IeC {\'o}n de la lista personalizada}{121}{lstlisting.5.11}}
\newlabel{lst:java}{{5.12}{122}{Ejemplo de la implementación de la búsqueda de citas}{lstlisting.5.12}{}}
\@writefile{lol}{\defcounter {refsection}{0}\relax }\@writefile{lol}{\contentsline {lstlisting}{\numberline {5.12}Ejemplo de la implementaci\IeC {\'o}n de la b\IeC {\'u}squeda de citas}{122}{lstlisting.5.12}}
\newlabel{lst:java}{{5.13}{122}{Ejemplo de la implementación del aumento de la imagen}{lstlisting.5.13}{}}
\@writefile{lol}{\defcounter {refsection}{0}\relax }\@writefile{lol}{\contentsline {lstlisting}{\numberline {5.13}Ejemplo de la implementaci\IeC {\'o}n del aumento de la imagen}{122}{lstlisting.5.13}}
\@writefile{toc}{\defcounter {refsection}{0}\relax }\@writefile{toc}{\contentsline {subsubsection}{Pruebas}{123}{section*.176}}
\@writefile{lof}{\defcounter {refsection}{0}\relax }\@writefile{lof}{\contentsline {figure}{\numberline {5.26}{\ignorespaces Prueba de visualizaci\IeC {\'o}n de una cita}}{123}{figure.caption.177}}
\@writefile{toc}{\defcounter {refsection}{0}\relax }\@writefile{toc}{\contentsline {subsection}{\numberline {5.6.2}Versi\IeC {\'o}n obtenida}{123}{subsection.5.6.2}}
\newlabel{Versi\IeC {\'o}n obtenida}{{5.6.2}{123}{Versión obtenida}{subsection.5.6.2}{}}
\@writefile{toc}{\defcounter {refsection}{0}\relax }\@writefile{toc}{\contentsline {section}{\numberline {5.7}Iteraci\IeC {\'o}n 6}{124}{section.5.7}}
\newlabel{sec:Iteraci\IeC {\'o}n 6}{{5.7}{124}{Iteración 6}{section.5.7}{}}
\@writefile{toc}{\defcounter {refsection}{0}\relax }\@writefile{toc}{\contentsline {subsection}{\numberline {5.7.1}Historia de Usuario 9: Gesti\IeC {\'o}n de las citas}{124}{subsection.5.7.1}}
\newlabel{Historia de Usuario 9: Gesti\IeC {\'o}n de las citas}{{5.7.1}{124}{Historia de Usuario 9: Gestión de las citas}{subsection.5.7.1}{}}
\@writefile{toc}{\defcounter {refsection}{0}\relax }\@writefile{toc}{\contentsline {subsubsection}{An\IeC {\'a}lisis}{124}{section*.178}}
\@writefile{lof}{\defcounter {refsection}{0}\relax }\@writefile{lof}{\contentsline {figure}{\numberline {5.27}{\ignorespaces Diagrama de secuencia de la Historia de Usuario 9}}{124}{figure.caption.179}}
\@writefile{toc}{\defcounter {refsection}{0}\relax }\@writefile{toc}{\contentsline {subsubsection}{Dise\IeC {\~n}o}{124}{section*.180}}
\@writefile{lof}{\defcounter {refsection}{0}\relax }\@writefile{lof}{\contentsline {figure}{\numberline {5.28}{\ignorespaces Pantallas de la visualizaci\IeC {\'o}n de las citas}}{125}{figure.caption.181}}
\@writefile{lof}{\defcounter {refsection}{0}\relax }\@writefile{lof}{\contentsline {figure}{\numberline {5.29}{\ignorespaces Pantallas de la gesti\IeC {\'o}n de las citas}}{126}{figure.caption.182}}
\@writefile{lof}{\defcounter {refsection}{0}\relax }\@writefile{lof}{\contentsline {figure}{\numberline {5.30}{\ignorespaces Ejemplo de los estados de las citas}}{126}{figure.caption.183}}
\@writefile{toc}{\defcounter {refsection}{0}\relax }\@writefile{toc}{\contentsline {subsubsection}{Implementaci\IeC {\'o}n}{126}{section*.184}}
\newlabel{lst:java}{{5.14}{127}{Ejemplo de la implementación del botón de eliminar cita}{lstlisting.5.14}{}}
\@writefile{lol}{\defcounter {refsection}{0}\relax }\@writefile{lol}{\contentsline {lstlisting}{\numberline {5.14}Ejemplo de la implementaci\IeC {\'o}n del bot\IeC {\'o}n de eliminar cita}{127}{lstlisting.5.14}}
\newlabel{lst:java}{{5.15}{127}{Ejemplo de la implementación del guardado de la cita modificada}{lstlisting.5.15}{}}
\@writefile{lol}{\defcounter {refsection}{0}\relax }\@writefile{lol}{\contentsline {lstlisting}{\numberline {5.15}Ejemplo de la implementaci\IeC {\'o}n del guardado de la cita modificada}{127}{lstlisting.5.15}}
\newlabel{lst:java}{{5.16}{127}{Ejemplo de la implementación del eliminado de la cita}{lstlisting.5.16}{}}
\@writefile{lol}{\defcounter {refsection}{0}\relax }\@writefile{lol}{\contentsline {lstlisting}{\numberline {5.16}Ejemplo de la implementaci\IeC {\'o}n del eliminado de la cita}{127}{lstlisting.5.16}}
\newlabel{lst:java}{{5.17}{128}{Ejemplo de la implementación del botón de compartir cita}{lstlisting.5.17}{}}
\@writefile{lol}{\defcounter {refsection}{0}\relax }\@writefile{lol}{\contentsline {lstlisting}{\numberline {5.17}Ejemplo de la implementaci\IeC {\'o}n del bot\IeC {\'o}n de compartir cita}{128}{lstlisting.5.17}}
\@writefile{toc}{\defcounter {refsection}{0}\relax }\@writefile{toc}{\contentsline {subsubsection}{Pruebas}{128}{section*.189}}
\@writefile{lof}{\defcounter {refsection}{0}\relax }\@writefile{lof}{\contentsline {figure}{\numberline {5.31}{\ignorespaces Pruebas de gesti\IeC {\'o}n de las citas}}{128}{figure.caption.190}}
\@writefile{toc}{\defcounter {refsection}{0}\relax }\@writefile{toc}{\contentsline {subsection}{\numberline {5.7.2}Versi\IeC {\'o}n obtenida}{128}{subsection.5.7.2}}
\newlabel{Versi\IeC {\'o}n obtenida}{{5.7.2}{128}{Versión obtenida}{subsection.5.7.2}{}}
\@writefile{toc}{\defcounter {refsection}{0}\relax }\@writefile{toc}{\contentsline {section}{\numberline {5.8}Iteraci\IeC {\'o}n 7}{129}{section.5.8}}
\newlabel{sec:Iteraci\IeC {\'o}n 7}{{5.8}{129}{Iteración 7}{section.5.8}{}}
\@writefile{toc}{\defcounter {refsection}{0}\relax }\@writefile{toc}{\contentsline {subsection}{\numberline {5.8.1}Historia de Usuario 10: Visualizaci\IeC {\'o}n de las citas del servidor remoto}{129}{subsection.5.8.1}}
\newlabel{Historia de Usuario 10: Visualizaci\IeC {\'o}n de las citas del servidor remoto}{{5.8.1}{129}{Historia de Usuario 10: Visualización de las citas del servidor remoto}{subsection.5.8.1}{}}
\@writefile{toc}{\defcounter {refsection}{0}\relax }\@writefile{toc}{\contentsline {subsubsection}{An\IeC {\'a}lisis}{129}{section*.191}}
\@writefile{lof}{\defcounter {refsection}{0}\relax }\@writefile{lof}{\contentsline {figure}{\numberline {5.32}{\ignorespaces Diagrama de secuencia de la Historia de Usuario 10}}{129}{figure.caption.192}}
\@writefile{toc}{\defcounter {refsection}{0}\relax }\@writefile{toc}{\contentsline {subsubsection}{Dise\IeC {\~n}o}{129}{section*.193}}
\@writefile{lof}{\defcounter {refsection}{0}\relax }\@writefile{lof}{\contentsline {figure}{\numberline {5.33}{\ignorespaces Elementos de la sincronizaci\IeC {\'o}n de las citas del servidor remoto}}{130}{figure.caption.194}}
\@writefile{lof}{\defcounter {refsection}{0}\relax }\@writefile{lof}{\contentsline {figure}{\numberline {5.34}{\ignorespaces Pantalla de la visualizaci\IeC {\'o}n de las citas del servidor remoto}}{131}{figure.caption.195}}
\@writefile{toc}{\defcounter {refsection}{0}\relax }\@writefile{toc}{\contentsline {subsubsection}{Implementaci\IeC {\'o}n}{131}{section*.196}}
\newlabel{lst:java}{{5.18}{131}{Ejemplo de la implementación del elemento de sincronización}{lstlisting.5.18}{}}
\@writefile{lol}{\defcounter {refsection}{0}\relax }\@writefile{lol}{\contentsline {lstlisting}{\numberline {5.18}Ejemplo de la implementaci\IeC {\'o}n del elemento de sincronizaci\IeC {\'o}n}{131}{lstlisting.5.18}}
\newlabel{lst:java}{{5.19}{131}{Ejemplo de la implementación de la actualización de la lista personalizada}{lstlisting.5.19}{}}
\@writefile{lol}{\defcounter {refsection}{0}\relax }\@writefile{lol}{\contentsline {lstlisting}{\numberline {5.19}Ejemplo de la implementaci\IeC {\'o}n de la actualizaci\IeC {\'o}n de la lista personalizada}{131}{lstlisting.5.19}}
\@writefile{toc}{\defcounter {refsection}{0}\relax }\@writefile{toc}{\contentsline {subsubsection}{Pruebas}{132}{section*.199}}
\@writefile{lof}{\defcounter {refsection}{0}\relax }\@writefile{lof}{\contentsline {figure}{\numberline {5.35}{\ignorespaces Prueba de visualizaci\IeC {\'o}n de una cita online}}{132}{figure.caption.200}}
\@writefile{toc}{\defcounter {refsection}{0}\relax }\@writefile{toc}{\contentsline {subsection}{\numberline {5.8.2}Versi\IeC {\'o}n obtenida}{132}{subsection.5.8.2}}
\newlabel{Versi\IeC {\'o}n obtenida}{{5.8.2}{132}{Versión obtenida}{subsection.5.8.2}{}}
\@writefile{toc}{\defcounter {refsection}{0}\relax }\@writefile{toc}{\contentsline {section}{\numberline {5.9}Iteraci\IeC {\'o}n 8}{133}{section.5.9}}
\newlabel{sec:Iteraci\IeC {\'o}n 8}{{5.9}{133}{Iteración 8}{section.5.9}{}}
\@writefile{toc}{\defcounter {refsection}{0}\relax }\@writefile{toc}{\contentsline {subsection}{\numberline {5.9.1}Historia de Usuario 11: Visualizaci\IeC {\'o}n de los parajes}{133}{subsection.5.9.1}}
\newlabel{Historia de Usuario 11: Visualizaci\IeC {\'o}n de los parajes}{{5.9.1}{133}{Historia de Usuario 11: Visualización de los parajes}{subsection.5.9.1}{}}
\@writefile{toc}{\defcounter {refsection}{0}\relax }\@writefile{toc}{\contentsline {subsubsection}{An\IeC {\'a}lisis}{133}{section*.201}}
\@writefile{lof}{\defcounter {refsection}{0}\relax }\@writefile{lof}{\contentsline {figure}{\numberline {5.36}{\ignorespaces Diagrama de secuencia de la Historia de Usuario 11}}{133}{figure.caption.202}}
\@writefile{toc}{\defcounter {refsection}{0}\relax }\@writefile{toc}{\contentsline {subsubsection}{Dise\IeC {\~n}o}{133}{section*.203}}
\@writefile{lof}{\defcounter {refsection}{0}\relax }\@writefile{lof}{\contentsline {figure}{\numberline {5.37}{\ignorespaces Pantallas de la visualizaci\IeC {\'o}n de los parajes}}{134}{figure.caption.204}}
\@writefile{lof}{\defcounter {refsection}{0}\relax }\@writefile{lof}{\contentsline {figure}{\numberline {5.38}{\ignorespaces Pantallas de la visualizaci\IeC {\'o}n de los detalles de los parajes}}{134}{figure.caption.205}}
\@writefile{toc}{\defcounter {refsection}{0}\relax }\@writefile{toc}{\contentsline {subsubsection}{Implementaci\IeC {\'o}n}{135}{section*.206}}
\newlabel{lst:java}{{5.20}{135}{Ejemplo del mapa de los parajes}{lstlisting.5.20}{}}
\@writefile{lol}{\defcounter {refsection}{0}\relax }\@writefile{lol}{\contentsline {lstlisting}{\numberline {5.20}Ejemplo del mapa de los parajes}{135}{lstlisting.5.20}}
\newlabel{lst:java}{{5.21}{135}{Ejemplo de la selección de citas cotejadas con los parajes}{lstlisting.5.21}{}}
\@writefile{lol}{\defcounter {refsection}{0}\relax }\@writefile{lol}{\contentsline {lstlisting}{\numberline {5.21}Ejemplo de la selecci\IeC {\'o}n de citas cotejadas con los parajes}{135}{lstlisting.5.21}}
\@writefile{toc}{\defcounter {refsection}{0}\relax }\@writefile{toc}{\contentsline {subsubsection}{Pruebas}{136}{section*.209}}
\@writefile{lof}{\defcounter {refsection}{0}\relax }\@writefile{lof}{\contentsline {figure}{\numberline {5.39}{\ignorespaces Prueba de visualizaci\IeC {\'o}n de un paraje}}{136}{figure.caption.210}}
\@writefile{toc}{\defcounter {refsection}{0}\relax }\@writefile{toc}{\contentsline {subsection}{\numberline {5.9.2}Versi\IeC {\'o}n obtenida}{136}{subsection.5.9.2}}
\newlabel{Versi\IeC {\'o}n obtenida}{{5.9.2}{136}{Versión obtenida}{subsection.5.9.2}{}}
\@writefile{toc}{\defcounter {refsection}{0}\relax }\@writefile{toc}{\contentsline {section}{\numberline {5.10}Iteraci\IeC {\'o}n 9}{137}{section.5.10}}
\newlabel{sec:Iteraci\IeC {\'o}n 9}{{5.10}{137}{Iteración 9}{section.5.10}{}}
\@writefile{toc}{\defcounter {refsection}{0}\relax }\@writefile{toc}{\contentsline {subsection}{\numberline {5.10.1}Historia de Usuario 12: Gesti\IeC {\'o}n del perfil de usuario}{137}{subsection.5.10.1}}
\newlabel{Historia de Usuario 12: Gesti\IeC {\'o}n del perfil de usuario}{{5.10.1}{137}{Historia de Usuario 12: Gestión del perfil de usuario}{subsection.5.10.1}{}}
\@writefile{toc}{\defcounter {refsection}{0}\relax }\@writefile{toc}{\contentsline {subsubsection}{An\IeC {\'a}lisis}{137}{section*.211}}
\@writefile{lof}{\defcounter {refsection}{0}\relax }\@writefile{lof}{\contentsline {figure}{\numberline {5.40}{\ignorespaces Diagrama de secuencia de la Historia de Usuario 12}}{137}{figure.caption.212}}
\@writefile{toc}{\defcounter {refsection}{0}\relax }\@writefile{toc}{\contentsline {subsubsection}{Dise\IeC {\~n}o}{137}{section*.213}}
\@writefile{lof}{\defcounter {refsection}{0}\relax }\@writefile{lof}{\contentsline {figure}{\numberline {5.41}{\ignorespaces Pantallas de la gesti\IeC {\'o}n del perfil del usuario}}{138}{figure.caption.214}}
\@writefile{toc}{\defcounter {refsection}{0}\relax }\@writefile{toc}{\contentsline {subsubsection}{Implementaci\IeC {\'o}n}{138}{section*.215}}
\newlabel{lst:java}{{5.22}{138}{Ejemplo de la selección de citas cotejadas con los parajes}{lstlisting.5.22}{}}
\@writefile{lol}{\defcounter {refsection}{0}\relax }\@writefile{lol}{\contentsline {lstlisting}{\numberline {5.22}Ejemplo de la selecci\IeC {\'o}n de citas cotejadas con los parajes}{138}{lstlisting.5.22}}
\@writefile{toc}{\defcounter {refsection}{0}\relax }\@writefile{toc}{\contentsline {subsubsection}{Pruebas}{138}{section*.217}}
\@writefile{lof}{\defcounter {refsection}{0}\relax }\@writefile{lof}{\contentsline {figure}{\numberline {5.42}{\ignorespaces Pruebas de gesti\IeC {\'o}n del perfil de usuario}}{139}{figure.caption.218}}
\@writefile{toc}{\defcounter {refsection}{0}\relax }\@writefile{toc}{\contentsline {subsection}{\numberline {5.10.2}Versi\IeC {\'o}n obtenida}{139}{subsection.5.10.2}}
\newlabel{Versi\IeC {\'o}n obtenida}{{5.10.2}{139}{Versión obtenida}{subsection.5.10.2}{}}
\@writefile{toc}{\defcounter {refsection}{0}\relax }\@writefile{toc}{\contentsline {section}{\numberline {5.11}Iteraci\IeC {\'o}n 10}{140}{section.5.11}}
\newlabel{sec:Iteraci\IeC {\'o}n 10}{{5.11}{140}{Iteración 10}{section.5.11}{}}
\@writefile{toc}{\defcounter {refsection}{0}\relax }\@writefile{toc}{\contentsline {subsection}{\numberline {5.11.1}Historia de Usuario 13: Creaci\IeC {\'o}n de la p\IeC {\'a}gina web}{140}{subsection.5.11.1}}
\newlabel{Historia de Usuario 13: Creaci\IeC {\'o}n de la p\IeC {\'a}gina web}{{5.11.1}{140}{Historia de Usuario 13: Creación de la página web}{subsection.5.11.1}{}}
\@writefile{toc}{\defcounter {refsection}{0}\relax }\@writefile{toc}{\contentsline {subsubsection}{Dise\IeC {\~n}o}{140}{section*.219}}
\@writefile{lof}{\defcounter {refsection}{0}\relax }\@writefile{lof}{\contentsline {figure}{\numberline {5.43}{\ignorespaces Pantalla Principal}}{141}{figure.caption.220}}
\@writefile{lof}{\defcounter {refsection}{0}\relax }\@writefile{lof}{\contentsline {figure}{\numberline {5.44}{\ignorespaces Pantalla de Proyecto}}{141}{figure.caption.221}}
\@writefile{lof}{\defcounter {refsection}{0}\relax }\@writefile{lof}{\contentsline {figure}{\numberline {5.45}{\ignorespaces Pantallas referentes a las citas}}{142}{figure.caption.222}}
\@writefile{lof}{\defcounter {refsection}{0}\relax }\@writefile{lof}{\contentsline {figure}{\numberline {5.46}{\ignorespaces Pantalla de Documentaci\IeC {\'o}n}}{142}{figure.caption.223}}
\@writefile{lof}{\defcounter {refsection}{0}\relax }\@writefile{lof}{\contentsline {figure}{\numberline {5.47}{\ignorespaces Pantallas referentes a los parajes}}{143}{figure.caption.224}}
\@writefile{lof}{\defcounter {refsection}{0}\relax }\@writefile{lof}{\contentsline {figure}{\numberline {5.48}{\ignorespaces Pantalla de Contacto}}{143}{figure.caption.225}}
\@writefile{lof}{\defcounter {refsection}{0}\relax }\@writefile{lof}{\contentsline {figure}{\numberline {5.49}{\ignorespaces Pantalla de Error}}{144}{figure.caption.226}}
\@writefile{toc}{\defcounter {refsection}{0}\relax }\@writefile{toc}{\contentsline {subsubsection}{Implementaci\IeC {\'o}n}{144}{section*.227}}
\@writefile{toc}{\defcounter {refsection}{0}\relax }\@writefile{toc}{\contentsline {subsubsection}{Pruebas}{145}{section*.228}}
\@writefile{lof}{\defcounter {refsection}{0}\relax }\@writefile{lof}{\contentsline {figure}{\numberline {5.50}{\ignorespaces Ejemplo de pantallas en un dispositivo m\IeC {\'o}vil}}{145}{figure.caption.229}}
\@writefile{toc}{\defcounter {refsection}{0}\relax }\@writefile{toc}{\contentsline {subsection}{\numberline {5.11.2}Versi\IeC {\'o}n obtenida}{145}{subsection.5.11.2}}
\newlabel{Versi\IeC {\'o}n obtenida}{{5.11.2}{145}{Versión obtenida}{subsection.5.11.2}{}}
\@writefile{toc}{\defcounter {refsection}{0}\relax }\@writefile{toc}{\contentsline {section}{\numberline {5.12}An\IeC {\'a}lisis de la usabilidad del proyecto}{146}{section.5.12}}
\newlabel{sec:An\IeC {\'a}lisis de la usabilidad del proyecto}{{5.12}{146}{Análisis de la usabilidad del proyecto}{section.5.12}{}}
\@writefile{toc}{\defcounter {refsection}{0}\relax }\@writefile{toc}{\contentsline {subsection}{\numberline {5.12.1}Justificaci\IeC {\'o}n de la aplicaci\IeC {\'o}n de la usabilidad al proyecto}{146}{subsection.5.12.1}}
\newlabel{subsec:Justificaci\IeC {\'o}n de la aplicaci\IeC {\'o}n de la usabilidad al proyecto}{{5.12.1}{146}{Justificación de la aplicación de la usabilidad al proyecto}{subsection.5.12.1}{}}
\@writefile{lof}{\defcounter {refsection}{0}\relax }\@writefile{lof}{\contentsline {figure}{\numberline {5.51}{\ignorespaces An\IeC {\'a}lisis de la informaci\IeC {\'o}n proporcionada por los usuarios del cuestionario}}{147}{figure.caption.231}}
\@writefile{lof}{\defcounter {refsection}{0}\relax }\@writefile{lof}{\contentsline {figure}{\numberline {5.52}{\ignorespaces An\IeC {\'a}lisis de las impresiones generales del sistema}}{147}{figure.caption.232}}
\@writefile{lof}{\defcounter {refsection}{0}\relax }\@writefile{lof}{\contentsline {figure}{\numberline {5.53}{\ignorespaces An\IeC {\'a}lisis de las pantallas del sistema}}{148}{figure.caption.233}}
\@writefile{lof}{\defcounter {refsection}{0}\relax }\@writefile{lof}{\contentsline {figure}{\numberline {5.54}{\ignorespaces An\IeC {\'a}lisis de la terminolog\IeC {\'\i }a e informaci\IeC {\'o}n en el sistema}}{148}{figure.caption.234}}
\@writefile{lof}{\defcounter {refsection}{0}\relax }\@writefile{lof}{\contentsline {figure}{\numberline {5.55}{\ignorespaces An\IeC {\'a}lisis del aprendizaje del sistema}}{149}{figure.caption.235}}
\@writefile{lof}{\defcounter {refsection}{0}\relax }\@writefile{lof}{\contentsline {figure}{\numberline {5.56}{\ignorespaces An\IeC {\'a}lisis de las capacidades del sistema}}{149}{figure.caption.236}}
\@writefile{lof}{\defcounter {refsection}{0}\relax }\@writefile{lof}{\contentsline {figure}{\numberline {5.57}{\ignorespaces An\IeC {\'a}lisis de los manuales de uso e informaci\IeC {\'o}n del sistema}}{150}{figure.caption.237}}
\@writefile{toc}{\defcounter {refsection}{0}\relax }\@writefile{toc}{\contentsline {section}{\numberline {5.13}Versi\IeC {\'o}n final obtenida del proyecto}{150}{section.5.13}}
\newlabel{sec:Versi\IeC {\'o}n final obtenida del proyecto}{{5.13}{150}{Versión final obtenida del proyecto}{section.5.13}{}}
\@writefile{lof}{\defcounter {refsection}{0}\relax }\@writefile{lof}{\contentsline {figure}{\numberline {5.58}{\ignorespaces Estructura de la APIRest}}{151}{figure.caption.238}}
\@writefile{lof}{\defcounter {refsection}{0}\relax }\@writefile{lof}{\contentsline {figure}{\numberline {5.59}{\ignorespaces Estructura de la p\IeC {\'a}gina web}}{151}{figure.caption.239}}
\@writefile{lof}{\defcounter {refsection}{0}\relax }\@writefile{lof}{\contentsline {figure}{\numberline {5.60}{\ignorespaces Estructura de la aplicaci\IeC {\'o}n m\IeC {\'o}vil}}{152}{figure.caption.240}}
\@writefile{toc}{\defcounter {refsection}{0}\relax }\@writefile{toc}{\contentsline {section}{\numberline {5.14}Manual de usuario y ayuda}{152}{section.5.14}}
\newlabel{sec:Manual de usuario y ayuda}{{5.14}{152}{Manual de usuario y ayuda}{section.5.14}{}}
\@writefile{lof}{\defcounter {refsection}{0}\relax }\@writefile{lof}{\contentsline {figure}{\numberline {5.61}{\ignorespaces Pantalla de ayuda}}{153}{figure.caption.241}}
\@writefile{toc}{\defcounter {refsection}{0}\relax }\@writefile{toc}{\contentsline {section}{\numberline {5.15}Documentaci\IeC {\'o}n}{153}{section.5.15}}
\newlabel{sec:Documentaci\IeC {\'o}n}{{5.15}{153}{Documentación}{section.5.15}{}}
\@writefile{toc}{\defcounter {refsection}{0}\relax }\@writefile{toc}{\contentsline {section}{\numberline {5.16}Esfuerzo dedicado a la realizaci\IeC {\'o}n del proyecto}{153}{section.5.16}}
\newlabel{sec:Esfuerzo dedicado a la realizaci\IeC {\'o}n del proyecto}{{5.16}{153}{Esfuerzo dedicado a la realización del proyecto}{section.5.16}{}}
\@writefile{lof}{\defcounter {refsection}{0}\relax }\@writefile{lof}{\contentsline {figure}{\numberline {5.62}{\ignorespaces Gr\IeC {\'a}fica de esfuerzo dedicado a la realizaci\IeC {\'o}n del proyecto}}{154}{figure.caption.242}}
\@setckpt{./caps/Resultados}{
\setcounter{page}{155}
\setcounter{equation}{0}
\setcounter{enumi}{10}
\setcounter{enumii}{0}
\setcounter{enumiii}{0}
\setcounter{enumiv}{0}
\setcounter{footnote}{0}
\setcounter{mpfootnote}{0}
\setcounter{part}{0}
\setcounter{chapter}{5}
\setcounter{section}{16}
\setcounter{subsection}{0}
\setcounter{subsubsection}{0}
\setcounter{paragraph}{0}
\setcounter{subparagraph}{0}
\setcounter{figure}{62}
\setcounter{table}{19}
\setcounter{parentequation}{0}
\setcounter{Item}{33}
\setcounter{Hfootnote}{0}
\setcounter{bookmark@seq@number}{107}
\setcounter{nlinenum}{0}
\setcounter{float@type}{8}
\setcounter{subfigure}{0}
\setcounter{lofdepth}{1}
\setcounter{subtable}{0}
\setcounter{lotdepth}{1}
\setcounter{r@tfl@t}{0}
\setcounter{lstnumber}{18}
\setcounter{AlgoLine}{0}
\setcounter{algocfline}{0}
\setcounter{algocfproc}{0}
\setcounter{algocf}{0}
\setcounter{ContinuedFloat}{0}
\setcounter{tabx@nest}{0}
\setcounter{listtotal}{0}
\setcounter{listcount}{0}
\setcounter{liststart}{0}
\setcounter{liststop}{0}
\setcounter{citecount}{0}
\setcounter{citetotal}{0}
\setcounter{multicitecount}{0}
\setcounter{multicitetotal}{0}
\setcounter{instcount}{67}
\setcounter{maxnames}{3}
\setcounter{minnames}{1}
\setcounter{maxitems}{3}
\setcounter{minitems}{1}
\setcounter{citecounter}{0}
\setcounter{savedcitecounter}{0}
\setcounter{uniquelist}{0}
\setcounter{uniquename}{0}
\setcounter{refsection}{0}
\setcounter{refsegment}{0}
\setcounter{maxextratitle}{0}
\setcounter{maxextratitleyear}{0}
\setcounter{maxextradate}{0}
\setcounter{maxextraalpha}{5}
\setcounter{abbrvpenalty}{50}
\setcounter{highnamepenalty}{50}
\setcounter{lownamepenalty}{25}
\setcounter{maxparens}{3}
\setcounter{parenlevel}{0}
\setcounter{mincomprange}{10}
\setcounter{maxcomprange}{100000}
\setcounter{mincompwidth}{1}
\setcounter{afterword}{0}
\setcounter{savedafterword}{0}
\setcounter{annotator}{0}
\setcounter{savedannotator}{0}
\setcounter{author}{0}
\setcounter{savedauthor}{0}
\setcounter{bookauthor}{0}
\setcounter{savedbookauthor}{0}
\setcounter{commentator}{0}
\setcounter{savedcommentator}{0}
\setcounter{editor}{0}
\setcounter{savededitor}{0}
\setcounter{editora}{0}
\setcounter{savededitora}{0}
\setcounter{editorb}{0}
\setcounter{savededitorb}{0}
\setcounter{editorc}{0}
\setcounter{savededitorc}{0}
\setcounter{foreword}{0}
\setcounter{savedforeword}{0}
\setcounter{holder}{0}
\setcounter{savedholder}{0}
\setcounter{introduction}{0}
\setcounter{savedintroduction}{0}
\setcounter{namea}{0}
\setcounter{savednamea}{0}
\setcounter{nameb}{0}
\setcounter{savednameb}{0}
\setcounter{namec}{0}
\setcounter{savednamec}{0}
\setcounter{translator}{0}
\setcounter{savedtranslator}{0}
\setcounter{shortauthor}{0}
\setcounter{savedshortauthor}{0}
\setcounter{shorteditor}{0}
\setcounter{savedshorteditor}{0}
\setcounter{labelname}{0}
\setcounter{savedlabelname}{0}
\setcounter{institution}{0}
\setcounter{savedinstitution}{0}
\setcounter{lista}{0}
\setcounter{savedlista}{0}
\setcounter{listb}{0}
\setcounter{savedlistb}{0}
\setcounter{listc}{0}
\setcounter{savedlistc}{0}
\setcounter{listd}{0}
\setcounter{savedlistd}{0}
\setcounter{liste}{0}
\setcounter{savedliste}{0}
\setcounter{listf}{0}
\setcounter{savedlistf}{0}
\setcounter{location}{0}
\setcounter{savedlocation}{0}
\setcounter{organization}{0}
\setcounter{savedorganization}{0}
\setcounter{origlocation}{0}
\setcounter{savedoriglocation}{0}
\setcounter{origpublisher}{0}
\setcounter{savedorigpublisher}{0}
\setcounter{publisher}{0}
\setcounter{savedpublisher}{0}
\setcounter{language}{0}
\setcounter{savedlanguage}{0}
\setcounter{origlanguage}{0}
\setcounter{savedoriglanguage}{0}
\setcounter{pageref}{0}
\setcounter{savedpageref}{0}
\setcounter{textcitecount}{0}
\setcounter{textcitetotal}{0}
\setcounter{textcitemaxnames}{0}
\setcounter{biburlnumpenalty}{0}
\setcounter{biburlucpenalty}{0}
\setcounter{biburllcpenalty}{0}
\setcounter{smartand}{1}
\setcounter{bbx:relatedcount}{0}
\setcounter{bbx:relatedtotal}{0}
\setcounter{section@level}{1}
\setcounter{lstlisting}{22}
\setcounter{totpages}{30}
}
